<?xml version="1.0" standalone="no"?>
<!DOCTYPE svg PUBLIC "-//W3C//DTD SVG 1.1//EN" "http://www.w3.org/Graphics/SVG/1.1/DTD/svg11.dtd" >
<svg>
<metadata>
Created by FontForge 20120731 at Wed Aug  3 16:24:54 2016
 By www
Copyright (c) Mark Simonson, 2005. All rights reserved.
</metadata>
<defs>
<font id="ProximaNovaW01-Regular" horiz-adv-x="230" >
  <font-face 
    font-family="ProximaNovaW01-Regular"
    font-weight="400"
    font-stretch="normal"
    units-per-em="1000"
    panose-1="2 0 5 6 3 0 0 2 0 4"
    ascent="800"
    descent="-200"
    x-height="483"
    cap-height="667"
    bbox="-172 -199 1052 887"
    underline-thickness="50"
    underline-position="-125"
    unicode-range="U+000D-2212"
  />
<missing-glyph horiz-adv-x="507" 
d="M78 752h351v-842h-351v842zM109 722v-782h288v782h-288z" />
    <glyph glyph-name=".notdef" horiz-adv-x="507" 
d="M78 752h351v-842h-351v842zM109 722v-782h288v782h-288z" />
    <glyph glyph-name="glyph1" horiz-adv-x="0" 
 />
    <glyph glyph-name="glyph1" horiz-adv-x="0" 
 />
    <glyph glyph-name="uni000D" unicode="&#xd;" horiz-adv-x="258" 
 />
    <glyph glyph-name="space" unicode=" " horiz-adv-x="258" 
 />
    <glyph glyph-name="exclam" unicode="!" 
d="M68 667h94l-16 -480h-62zM76.5 84q16.5 16 38.5 16q23 0 39 -16t16 -39q0 -22 -16.5 -38.5t-38.5 -16.5t-38.5 16.5t-16.5 38.5q0 23 16.5 39z" />
    <glyph glyph-name="quotedbl" unicode="&#x22;" horiz-adv-x="343" 
d="M65.5 533q-11.5 89 -11.5 98q0 19 13 32.5t32 13.5t32.5 -13.5t13.5 -32.5q0 -9 -11.5 -98t-15.5 -121h-37q-4 32 -15.5 121zM210.5 533q-11.5 89 -11.5 98q0 19 13.5 32.5t32.5 13.5t32 -13.5t13 -32.5q0 -9 -11.5 -98t-15.5 -121h-37q-4 32 -15.5 121z" />
    <glyph glyph-name="numbersign" unicode="#" horiz-adv-x="590" 
d="M300 181h-111l-60 -181h-62l61 181h-106l17 53h107l66 199h-108l16 52h110l60 182h62l-60 -182h110l60 182h61l-61 -182h107l-15 -52h-109l-67 -199h111l-16 -53h-113l-60 -181h-61zM273 433l-66 -199h110l66 199h-110z" />
    <glyph glyph-name="dollar" unicode="$" horiz-adv-x="593" 
d="M492 53q-52 -55 -160 -63v-90h-61v89q-74 4 -132 32t-97 73l50 63q32 -36 78 -61.5t101 -31.5v243q-64 17 -107 36t-72 55.5t-29 93.5q0 51 27 91.5t74 65t107 28.5v91h61v-93q121 -10 197 -91l-50 -61q-56 63 -147 76v-217q65 -18 109 -39t73.5 -59.5t29.5 -99.5
q0 -76 -52 -131zM180.5 436.5q31.5 -21.5 90.5 -38.5v204q-54 -3 -88 -32t-34 -73q0 -39 31.5 -60.5zM428.5 103q30.5 33 30.5 74q0 46 -32.5 70.5t-94.5 43.5v-226q66 5 96.5 38z" />
    <glyph glyph-name="percent" unicode="%" horiz-adv-x="731" 
d="M51.5 595.5q20.5 37.5 56.5 59.5t83 22t84 -22t57.5 -59.5t20.5 -84.5q0 -46 -20.5 -83.5t-57.5 -58.5t-84 -21t-83.5 21t-56.5 58.5t-20 83.5q0 47 20.5 84.5zM554 667h55l-427 -667h-54zM264.5 593.5q-28.5 32.5 -73.5 32.5q-44 0 -72 -32.5t-28 -82.5q0 -48 28 -80.5
t72 -32.5t73 32.5t29 80.5q0 50 -28.5 82.5zM399.5 235.5q20.5 37.5 56.5 59.5t83 22t83.5 -22t57 -59.5t20.5 -84.5q0 -46 -20.5 -83.5t-57 -58.5t-83.5 -21t-83.5 21t-56.5 58.5t-20 83.5q0 47 20.5 84.5zM612.5 233.5q-28.5 32.5 -73.5 32.5t-73 -32.5t-28 -82.5
q0 -48 28.5 -80.5t72.5 -32.5t73 32.5t29 80.5q0 50 -28.5 82.5z" />
    <glyph glyph-name="ampersand" unicode="&#x26;" horiz-adv-x="641" 
d="M613 0h-104q-30 27 -73 70q-84 -82 -192 -82q-91 0 -149.5 48.5t-58.5 137.5q0 71 39 116t109 83q-52 86 -52 149q0 44 22.5 79.5t61 55.5t84.5 20q67 0 109 -34.5t42 -96.5q0 -47 -23 -80.5t-56 -55.5t-90 -52q23 -32 76 -95q20 -22 29 -33l51 -56q25 38 43 78.5
t28 73.5l65 -28q-44 -106 -91 -172q47 -48 130 -126zM250 406q66 33 99 62.5t33 74.5q0 36 -22 55.5t-57 19.5q-39 0 -66 -27.5t-27 -69.5q0 -45 40 -115zM391 116q-66 69 -92 101q-55 66 -83 106q-47 -29 -73 -62.5t-26 -81.5q0 -60 39.5 -94.5t94.5 -34.5q74 0 140 66z
" />
    <glyph glyph-name="quotesingle" unicode="'" horiz-adv-x="199" 
d="M65.5 533q-11.5 89 -11.5 98q0 19 13 32.5t32 13.5t32.5 -13.5t13.5 -32.5q0 -9 -11.5 -98t-15.5 -121h-37q-4 32 -15.5 121z" />
    <glyph glyph-name="parenleft" unicode="(" horiz-adv-x="248" 
d="M80.5 8.5q-36.5 114.5 -36.5 234.5t36.5 234.5t104.5 207.5l45 -34q-53 -105 -78.5 -197.5t-25.5 -210.5q0 -117 25.5 -210.5t78.5 -196.5l-45 -35q-68 93 -104.5 207.5z" />
    <glyph glyph-name="parenright" unicode=")" horiz-adv-x="248" 
d="M96 454q-26 93 -79 197l45 34q68 -93 105 -207.5t37 -234.5q0 -121 -37 -235.5t-105 -206.5l-45 35q53 103 79 196.5t26 210.5q0 118 -26 211z" />
    <glyph glyph-name="asterisk" unicode="*" horiz-adv-x="340" 
d="M152 504l-96 -63l-22 40l102 52l-102 52l22 39l96 -62l-5 115h46l-6 -115l96 62l23 -39l-102 -52l102 -52l-23 -40l-96 63l6 -115h-46z" />
    <glyph glyph-name="plus" unicode="+" horiz-adv-x="499" 
d="M278 98h-57v213h-192v52h192v207h57v-207h192v-52h-192v-213z" />
    <glyph glyph-name="comma" unicode="," 
d="M57 -96q25 16 43.5 42.5t21.5 50.5q-4 -2 -14 -2q-21 0 -34.5 14.5t-13.5 36.5t15.5 38t37.5 16q26 0 44.5 -20.5t18.5 -55.5q0 -44 -23 -84.5t-59 -66.5z" />
    <glyph glyph-name="hyphen" unicode="-" horiz-adv-x="300" 
d="M30 275h240v-66h-240v66z" />
    <glyph glyph-name="period" unicode="." 
d="M76.5 84q16.5 16 38.5 16q23 0 39 -16t16 -39q0 -22 -16 -38.5t-39 -16.5q-22 0 -38.5 16.5t-16.5 38.5q0 23 16.5 39z" />
    <glyph glyph-name="slash" unicode="/" horiz-adv-x="296" 
d="M237 687h59l-237 -707h-59z" />
    <glyph glyph-name="zero" unicode="0" horiz-adv-x="612" 
d="M78 498.5q27 78.5 84 128.5t144 50q86 0 143.5 -50t84.5 -128.5t27 -165.5t-27 -165.5t-84.5 -129t-143.5 -50.5t-143.5 50.5t-84.5 129t-27 165.5t27 165.5zM435 524.5q-41 78.5 -129 78.5t-129 -78.5t-41 -191.5q0 -114 41 -192.5t129 -78.5t129 78.5t41 192.5
q0 113 -41 191.5z" />
    <glyph glyph-name="one" unicode="1" horiz-adv-x="339" 
d="M178 557l-107 -113l-50 51l167 172h73v-667h-83v557z" />
    <glyph glyph-name="two" unicode="2" horiz-adv-x="588" 
d="M54 66q138 109 213.5 175.5t116 125.5t40.5 114q0 60 -41 91t-98 31q-58 0 -104.5 -22.5t-76.5 -61.5l-51 53q38 50 99.5 77.5t132.5 27.5q58 0 109 -22t83 -66.5t32 -107.5q0 -65 -40 -129.5t-108 -128.5t-176 -149h327v-74h-458v66z" />
    <glyph glyph-name="three" unicode="3" horiz-adv-x="557" 
d="M78 150q30 -40 79 -64t107 -24q73 0 114.5 33.5t41.5 91.5q0 60 -44.5 89t-121.5 29q-59 0 -69 -1v76q11 -1 69 -1q68 0 111.5 27.5t43.5 82.5q0 53 -42.5 83.5t-106.5 30.5q-53 0 -95.5 -20t-80.5 -61l-46 52q39 47 97 75t131 28q99 0 162.5 -47.5t63.5 -130.5
q0 -66 -44 -105.5t-100 -49.5q34 -3 69.5 -22.5t60 -55.5t24.5 -86q0 -56 -28.5 -99.5t-82 -68t-125.5 -24.5q-80 0 -142 31t-95 79z" />
    <glyph glyph-name="four" unicode="4" horiz-adv-x="558" 
d="M349 169h-317v69l286 429h114v-425h94v-73h-94v-169h-83v169zM115 242h234v348z" />
    <glyph glyph-name="five" unicode="5" horiz-adv-x="590" 
d="M117 150q69 -88 184 -88q68 0 111 41t43 102q0 65 -42.5 104.5t-110.5 39.5q-90 0 -154 -63l-61 21v360h408v-74h-325v-232q26 26 67 43t89 17q57 0 105.5 -25t77.5 -73.5t29 -114.5t-31 -116t-85 -77t-121 -27q-81 0 -138.5 27.5t-96.5 79.5z" />
    <glyph glyph-name="six" unicode="6" horiz-adv-x="591" 
d="M80.5 504.5q29.5 78.5 90.5 125.5t151 47q115 0 185 -80l-42 -62q-28 33 -61 50.5t-82 17.5q-62 0 -104 -37t-63 -96.5t-21 -128.5q0 -17 1 -26q25 40 77.5 72t111.5 32q61 0 110.5 -24t78.5 -72t29 -117q0 -59 -28.5 -108.5t-81.5 -79.5t-124 -30q-131 0 -194 97.5
t-63 246.5q0 94 29.5 172.5zM415 310q-43 37 -111 37q-49 0 -94 -27.5t-73 -72.5q7 -74 48 -129.5t120 -55.5q49 0 83.5 21t52 53.5t17.5 66.5q0 70 -43 107z" />
    <glyph glyph-name="seven" unicode="7" horiz-adv-x="515" 
d="M390 593h-359v74h455v-57l-273 -610h-92z" />
    <glyph glyph-name="eight" unicode="8" horiz-adv-x="581" 
d="M97.5 278q45.5 46 113.5 66q-64 18 -106 58.5t-42 101.5q0 57 32.5 96t85 58t110.5 19t110.5 -19t85.5 -58t33 -96q0 -61 -42 -101.5t-107 -58.5q68 -20 113.5 -66t45.5 -109q0 -55 -32 -96t-86.5 -63t-120.5 -22q-67 0 -121.5 22t-86 63t-31.5 96q0 63 45.5 109z
M394.5 573q-41.5 30 -103.5 30q-63 0 -104 -30t-41 -80q0 -53 47 -79.5t98 -35.5q51 9 98 35.5t47 79.5q0 50 -41.5 80zM418 246q-28 28 -64 43t-63 18q-27 -3 -63.5 -18t-64.5 -43t-28 -68q0 -52 45.5 -84t110.5 -32q64 0 109.5 32t45.5 84q0 40 -28 68z" />
    <glyph glyph-name="nine" unicode="9" horiz-adv-x="591" 
d="M126 131q28 -33 61.5 -50.5t81.5 -17.5q64 0 106.5 37.5t62 97t19.5 126.5q0 18 -1 27q-25 -40 -77 -72t-111 -32q-61 0 -111 24t-79 72t-29 117q0 58 28.5 108t81.5 80t123 30q132 0 195 -97.5t63 -247.5q0 -94 -29.5 -172t-90.5 -125t-151 -47q-115 0 -185 80zM406 548
q-41 56 -120 56q-48 0 -83 -21.5t-52.5 -54t-17.5 -65.5q0 -70 43 -107t111 -37q49 0 94.5 27t71.5 72q-6 74 -47 130z" />
    <glyph glyph-name="colon" unicode=":" 
d="M76.5 474q16.5 16 38.5 16q23 0 39 -16t16 -39q0 -22 -16 -38.5t-39 -16.5q-22 0 -38.5 16.5t-16.5 38.5q0 23 16.5 39zM76.5 84q16.5 16 38.5 16q23 0 39 -16t16 -39q0 -22 -16 -38.5t-39 -16.5q-22 0 -38.5 16.5t-16.5 38.5q0 23 16.5 39z" />
    <glyph glyph-name="semicolon" unicode=";" 
d="M76.5 396.5q-16.5 16.5 -16.5 38.5q0 23 16.5 39t38.5 16q23 0 39 -16t16 -39q0 -22 -16.5 -38.5t-38.5 -16.5t-38.5 16.5zM57 -96q25 16 43.5 42.5t21.5 50.5q-4 -2 -14 -2q-21 0 -34.5 14.5t-13.5 36.5t15.5 38t37.5 16q26 0 44.5 -20.5t18.5 -55.5q0 -44 -23 -84.5
t-59 -66.5z" />
    <glyph glyph-name="less" unicode="&#x3c;" horiz-adv-x="499" 
d="M29 361l441 219v-63l-377 -183l377 -182v-62l-441 218v53z" />
    <glyph glyph-name="equal" unicode="=" horiz-adv-x="499" 
d="M29 457h441v-53h-441v53zM29 263h441v-52h-441v52z" />
    <glyph glyph-name="greater" unicode="&#x3e;" horiz-adv-x="499" 
d="M29 152l376 182l-376 183v63l441 -219v-53l-441 -218v62z" />
    <glyph glyph-name="question" unicode="?" horiz-adv-x="462" 
d="M177.5 321q13.5 24 32 40.5t50.5 39.5q43 29 64 52t21 57q0 40 -30.5 66.5t-87.5 26.5q-53 0 -91 -21t-68 -61l-50 54q37 48 92.5 75t124.5 27q59 0 103.5 -20.5t68.5 -56t24 -78.5q0 -39 -15.5 -68.5t-38 -49t-58.5 -44.5q-43 -30 -62.5 -50.5t-19.5 -49.5
q0 -12 7.5 -25.5t19.5 -23.5l-61 -26q-39 33 -39 81q0 31 13.5 55zM185.5 84q16.5 16 38.5 16q23 0 39 -16t16 -39q0 -22 -16 -38.5t-39 -16.5q-22 0 -38.5 16.5t-16.5 38.5q0 23 16.5 39z" />
    <glyph glyph-name="at" unicode="@" horiz-adv-x="783" 
d="M90.5 440q55.5 91 147 144.5t194.5 53.5q92 0 164 -42.5t111.5 -115t39.5 -159.5q0 -75 -25 -128.5t-64.5 -80.5t-83.5 -27q-40 0 -64.5 23.5t-26.5 57.5l-1 6q-27 -38 -69.5 -62.5t-88.5 -24.5q-69 0 -111 45t-42 118q0 67 33.5 125t88 92t113.5 34q46 0 79.5 -22
t48.5 -56l13 62h68l-57 -271q-2 -12 -2 -21q0 -25 13.5 -38.5t33.5 -13.5q23 0 48 18t42.5 59t17.5 105q0 81 -35.5 145.5t-99.5 101t-148 36.5q-94 0 -177 -50t-132.5 -133t-49.5 -175q0 -80 37 -144.5t102.5 -101.5t147.5 -37q97 0 186 56l18 -26q-98 -63 -208 -63
q-89 0 -161.5 41.5t-114 113.5t-41.5 159q0 105 55.5 196zM522 369q-10 29 -36.5 51.5t-66.5 22.5q-48 0 -89 -27.5t-64.5 -71.5t-23.5 -92q0 -49 27.5 -80t74.5 -31t85 26t64 64z" />
    <glyph glyph-name="A" unicode="A" horiz-adv-x="658" 
d="M495 148h-332l-59 -148h-95l268 667h103l269 -667h-95zM187 222h283l-141 359z" />
    <glyph glyph-name="B" unicode="B" horiz-adv-x="629" 
d="M78 667h297q86 0 136.5 -47t50.5 -123q0 -60 -34 -101.5t-83 -51.5q35 -5 65 -29t47.5 -60t17.5 -75q0 -81 -51.5 -130.5t-141.5 -49.5h-304v667zM361 378q55 0 85 30t30 77t-30.5 77.5t-84.5 30.5h-200v-215h200zM365 74q58 0 91 31t33 84q0 49 -32.5 82t-91.5 33h-204
v-230h204z" />
    <glyph glyph-name="C" unicode="C" horiz-adv-x="676" 
d="M220 31.5q-78 43.5 -123.5 122.5t-45.5 179t45.5 179t123.5 122.5t174 43.5q84 0 147 -35.5t106 -96.5l-70 -39q-29 43 -78 70t-105 27q-72 0 -131 -34.5t-92.5 -96.5t-33.5 -140t33.5 -139.5t92.5 -96.5t131 -35q56 0 105 26.5t78 70.5l71 -39q-97 -132 -254 -132
q-96 0 -174 43.5z" />
    <glyph glyph-name="D" unicode="D" horiz-adv-x="700" 
d="M78 667h228q101 0 179 -43.5t120.5 -120t42.5 -170.5q0 -95 -42.5 -170.5t-120.5 -119t-179 -43.5h-228v667zM306 74q79 0 137 34.5t88.5 93.5t30.5 131q0 73 -30 132t-88 93.5t-138 34.5h-145v-519h145z" />
    <glyph glyph-name="E" unicode="E" horiz-adv-x="569" 
d="M78 667h437v-74h-354v-215h347v-74h-347v-230h354v-74h-437v667z" />
    <glyph glyph-name="F" unicode="F" horiz-adv-x="550" 
d="M78 667h437v-74h-354v-215h347v-74h-347v-304h-83v667z" />
    <glyph glyph-name="G" unicode="G" horiz-adv-x="713" 
d="M96.5 512.5q45.5 78.5 124 122t173.5 43.5q158 0 259 -125l-66 -41q-32 42 -83.5 67t-109.5 25q-72 0 -131 -34.5t-92.5 -96.5t-33.5 -140t33.5 -140t92.5 -97t131 -35q55 0 102.5 21.5t76.5 50.5v136h-229v74h312v-241q-48 -54 -115.5 -84.5t-146.5 -30.5
q-95 0 -173.5 43.5t-124 122.5t-45.5 180t45.5 179.5z" />
    <glyph glyph-name="H" unicode="H" horiz-adv-x="712" 
d="M551 306h-390v-306h-83v667h83v-287h390v287h83v-667h-83v306z" />
    <glyph glyph-name="I" unicode="I" horiz-adv-x="239" 
d="M78 667h83v-667h-83v667z" />
    <glyph glyph-name="J" unicode="J" horiz-adv-x="475" 
d="M54 128q55 -66 126 -66q61 0 97.5 38.5t36.5 101.5v465h83v-466q0 -104 -59 -158.5t-153 -54.5q-54 0 -97 18.5t-77 58.5z" />
    <glyph glyph-name="K" unicode="K" horiz-adv-x="601" 
d="M228 300l-67 -76v-224h-83v667h83v-345l295 345h104l-278 -317l302 -350h-103z" />
    <glyph glyph-name="L" unicode="L" horiz-adv-x="510" 
d="M78 667h83v-593h310v-74h-393v667z" />
    <glyph glyph-name="M" unicode="M" horiz-adv-x="809" 
d="M648 549l-227 -549h-34l-226 549v-549h-83v667h119l207 -502l208 502h119v-667h-83v549z" />
    <glyph glyph-name="N" unicode="N" horiz-adv-x="708" 
d="M161 532v-532h-83v667h85l384 -521v521h83v-667h-80z" />
    <glyph glyph-name="O" unicode="O" horiz-adv-x="765" 
d="M92.5 509.5q41.5 78.5 117 123.5t172.5 45t172 -45t117 -123.5t42 -176.5t-42 -176.5t-117 -123.5t-172 -45t-172.5 45t-117 123.5t-41.5 176.5t41.5 176.5zM596.5 472.5q-30.5 61.5 -86 96.5t-128.5 35q-74 0 -129.5 -35t-85.5 -96.5t-30 -139.5q0 -77 30 -139t86 -97
t129 -35t128.5 35t86 97t30.5 139q0 78 -30.5 139.5z" />
    <glyph glyph-name="P" unicode="P" horiz-adv-x="587" 
d="M78 667h268q65 0 112.5 -27t72 -73t24.5 -101t-25 -101t-72.5 -73t-111.5 -27h-185v-265h-83v667zM432 557.5q-37 35.5 -96 35.5h-175v-254h175q59 0 96 35.5t37 91.5t-37 91.5z" />
    <glyph glyph-name="Q" unicode="Q" horiz-adv-x="765" 
d="M689.5 196.5q-23.5 -63.5 -67.5 -109.5l63 -68l-58 -50l-64 69q-80 -50 -181 -50q-97 0 -172.5 45t-117 123.5t-41.5 176.5t41.5 176.5t117 123.5t172.5 45t172 -45t117 -123.5t42 -176.5q0 -73 -23.5 -136.5zM509 96l-95 103l58 49l94 -101q29 36 45 83.5t16 102.5
q0 78 -30.5 139.5t-86 96.5t-128.5 35q-74 0 -129.5 -35t-85.5 -96.5t-30 -139.5q0 -77 30 -139t86 -97t129 -35q69 0 127 34z" />
    <glyph glyph-name="R" unicode="R" horiz-adv-x="608" 
d="M294 265h-133v-265h-83v667h268q61 0 108.5 -24.5t74 -70.5t26.5 -106q0 -58 -23.5 -100.5t-63 -66t-86.5 -27.5l180 -272h-98zM432 557.5q-37 35.5 -96 35.5h-175v-255h175q59 0 96 36t37 92t-37 91.5z" />
    <glyph glyph-name="S" unicode="S" horiz-adv-x="586" 
d="M87 157q37 -41 91 -68t119 -27q81 0 119 34.5t38 80.5q0 37 -22.5 60.5t-55.5 36.5t-91 29q-74 19 -118.5 37t-76 54.5t-31.5 97.5q0 54 30 96t82 65.5t117 23.5q149 0 237 -93l-50 -61q-36 40 -86 60t-107 20q-60 0 -98.5 -29.5t-38.5 -76.5q0 -31 21.5 -51.5t52.5 -32
t88 -26.5q74 -20 120.5 -39.5t79.5 -59t33 -104.5q0 -52 -25 -96.5t-80.5 -72t-140.5 -27.5q-83 0 -147.5 28.5t-108.5 77.5z" />
    <glyph glyph-name="T" unicode="T" horiz-adv-x="570" 
d="M243 593h-211v74h506v-74h-212v-593h-83v593z" />
    <glyph glyph-name="U" unicode="U" horiz-adv-x="700" 
d="M78 667h83v-406q0 -93 49 -146t140 -53t140 53t49 146v406h83v-407q0 -127 -69.5 -199.5t-202.5 -72.5t-202.5 72.5t-69.5 198.5v408z" />
    <glyph glyph-name="V" unicode="V" horiz-adv-x="658" 
d="M9 667h95l225 -576l225 576h95l-269 -667h-103z" />
    <glyph glyph-name="W" unicode="W" horiz-adv-x="883" 
d="M441 538l-147 -538h-90l-190 667h92l148 -556l153 556h69l153 -556l147 556h92l-190 -667h-90z" />
    <glyph glyph-name="X" unicode="X" horiz-adv-x="652" 
d="M326 284l-213 -284h-101l260 342l-245 325h101l198 -267l197 267h101l-244 -324l259 -343h-100z" />
    <glyph glyph-name="Y" unicode="Y" horiz-adv-x="626" 
d="M272 282l-263 385h97l207 -310l207 310h97l-262 -385v-282h-83v282z" />
    <glyph glyph-name="Z" unicode="Z" horiz-adv-x="585" 
d="M48 69l375 524h-375v74h481v-69l-375 -524h382v-74h-488v69z" />
    <glyph glyph-name="bracketleft" unicode="[" horiz-adv-x="243" 
d="M40 678h186v-55h-128v-758h128v-55h-186v868z" />
    <glyph glyph-name="backslash" unicode="\" horiz-adv-x="296" 
d="M59 687l237 -707h-59l-237 707h59z" />
    <glyph glyph-name="bracketright" unicode="]" horiz-adv-x="243" 
d="M17 -135h128v758h-128v55h186v-868h-186v55z" />
    <glyph glyph-name="asciicircum" unicode="^" horiz-adv-x="432" 
d="M216 612l-135 -279h-62l169 334h57l168 -334h-62z" />
    <glyph glyph-name="underscore" unicode="_" horiz-adv-x="564" 
d="M-3 -40h570v-55h-570v55z" />
    <glyph glyph-name="grave" unicode="`" horiz-adv-x="226" 
d="M0 700h78l148 -144h-57z" />
    <glyph glyph-name="a" unicode="a" horiz-adv-x="527" 
d="M377 55q-61 -67 -160 -67q-43 0 -81.5 18.5t-63 55t-24.5 86.5q0 51 24.5 87t63 54t81.5 18q103 0 160 -66v87q0 48 -34 75t-88 27q-44 0 -80 -16.5t-68 -50.5l-35 52q39 41 86.5 60.5t106.5 19.5q83 0 135 -40t52 -123v-332h-75v55zM377 193q-21 29 -56.5 44.5
t-76.5 15.5q-52 0 -85.5 -29.5t-33.5 -76.5q0 -46 33.5 -75.5t85.5 -29.5q41 0 76.5 15.5t56.5 44.5v91z" />
    <glyph glyph-name="b" unicode="b" horiz-adv-x="575" 
d="M75 667h75v-257q30 40 72 62.5t91 22.5q63 0 111.5 -31.5t76 -89t27.5 -133.5q0 -77 -27.5 -134.5t-76 -88t-111.5 -30.5q-49 0 -92 23t-71 61v-72h-75v667zM210.5 77q40.5 -22 83.5 -22q72 0 114 52t42 134t-42 134.5t-114 52.5q-43 0 -83.5 -22.5t-60.5 -55.5v-219
q20 -32 60.5 -54z" />
    <glyph glyph-name="c" unicode="c" horiz-adv-x="495" 
d="M77.5 371q30.5 58 85 91t125.5 33q62 0 104 -22t73 -62l-50 -46q-46 63 -123 63q-76 0 -121.5 -52t-45.5 -134t45.5 -134.5t121.5 -52.5t123 63l50 -46q-31 -40 -73 -62t-104 -22q-71 0 -125.5 33t-85 91t-30.5 130q0 71 30.5 129z" />
    <glyph glyph-name="d" unicode="d" horiz-adv-x="575" 
d="M425 72q-28 -38 -71 -61t-92 -23q-63 0 -111.5 30.5t-76 88t-27.5 134.5q0 76 27 133.5t76 89t112 31.5q48 0 90.5 -22.5t72.5 -62.5v257h75v-667h-75v72zM425 350q-21 33 -61.5 55.5t-83.5 22.5q-71 0 -113 -52.5t-42 -134.5t42 -134t113 -52q44 0 84 22t61 54v219z" />
    <glyph glyph-name="e" unicode="e" horiz-adv-x="563" 
d="M78 369q31 58 85 92t122 34q71 0 123.5 -34t80.5 -93t28 -132v-19h-391q5 -71 52 -119t122 -48q42 0 81.5 16t67.5 45l36 -49q-74 -74 -192 -74q-71 0 -127 32t-87.5 90t-31.5 132q0 69 31 127zM200 409q-35 -24 -53.5 -61t-20.5 -76h317q-1 39 -18.5 76t-53 61t-87.5 24
q-49 0 -84 -24z" />
    <glyph glyph-name="f" unicode="f" horiz-adv-x="283" 
d="M96 417h-80v66h80v37q0 74 38 115.5t102 41.5q46 0 73 -17l-19 -56q-19 11 -43 11q-37 0 -56.5 -24.5t-19.5 -70.5v-37h98v-66h-98v-417h-75v417z" />
    <glyph glyph-name="g" unicode="g" horiz-adv-x="574" 
d="M112 -68q29 -35 66.5 -50.5t90.5 -15.5q67 0 111 35.5t44 109.5v69q-27 -38 -70 -62t-92 -24q-63 0 -111.5 30t-76 86.5t-27.5 133.5q0 76 27 133t76 87.5t112 30.5q48 0 90 -22.5t72 -62.5v73h75v-469q0 -111 -65 -160.5t-165 -49.5q-64 0 -109 15.5t-86 56.5zM424 350
q-20 33 -60 55.5t-84 22.5q-72 0 -113.5 -51t-41.5 -133q0 -81 42 -132.5t113 -51.5q43 0 83.5 23t60.5 56v211z" />
    <glyph glyph-name="h" unicode="h" horiz-adv-x="552" 
d="M402 318q0 60 -28 85t-81 25q-41 0 -80.5 -22t-62.5 -53v-353h-75v667h75v-254q28 33 75 57.5t98 24.5q154 0 154 -154v-341h-75v318z" />
    <glyph glyph-name="i" unicode="i" horiz-adv-x="225" 
d="M77 566.5q-15 14.5 -15 35.5t15 36t35 15q21 0 36 -15t15 -36t-15 -35.5t-36 -14.5q-20 0 -35 14.5zM75 483h75v-483h-75v483z" />
    <glyph glyph-name="j" unicode="j" horiz-adv-x="225" 
d="M77 566.5q-15 14.5 -15 35.5t15 36t35 15q21 0 36 -15t15 -36t-15 -35.5t-36 -14.5q-20 0 -35 14.5zM150 -47q0 -71 -37 -110t-105 -39q-32 0 -54 7l10 63q12 -5 36 -5q75 0 75 84v530h75v-530z" />
    <glyph glyph-name="k" unicode="k" horiz-adv-x="514" 
d="M230 217l-80 -79v-138h-75v667h75v-441l254 257h95l-214 -219l215 -264h-96z" />
    <glyph glyph-name="l" unicode="l" horiz-adv-x="225" 
d="M75 667h75v-667h-75v667z" />
    <glyph glyph-name="m" unicode="m" horiz-adv-x="808" 
d="M658 328q0 47 -22 73.5t-67 26.5q-36 0 -72 -22t-56 -52v-354h-75v328q0 100 -89 100q-35 0 -70.5 -22t-56.5 -53v-353h-75v483h75v-70q18 28 63 55t93 27q53 0 86 -25t44 -65q22 36 67 63t95 27q66 0 100.5 -37t34.5 -109v-349h-75v328z" />
    <glyph glyph-name="n" unicode="n" horiz-adv-x="551" 
d="M401 316q0 61 -28 86.5t-80 25.5q-42 0 -81.5 -22t-61.5 -53v-353h-75v483h75v-70q28 33 75 57.5t97 24.5q154 0 154 -156v-339h-75v316z" />
    <glyph glyph-name="o" unicode="o" horiz-adv-x="572" 
d="M160 22q-54 34 -83.5 92t-29.5 128t29.5 128t83.5 91.5t126 33.5t126 -33.5t83.5 -91.5t29.5 -128t-29.5 -128t-83.5 -92t-126 -34t-126 34zM372 80.5q36 25.5 55 68.5t19 93t-19 92.5t-55 68t-86 25.5t-86.5 -25.5t-55.5 -68t-19 -92.5t19 -93t55.5 -68.5t86.5 -25.5
t86 25.5z" />
    <glyph glyph-name="p" unicode="p" horiz-adv-x="574" 
d="M75 -184v667h75v-72q27 38 70 61t93 23q63 0 112 -30.5t76 -88t27 -134.5t-27 -134.5t-76 -88.5t-112 -31q-49 0 -91.5 22t-71.5 63v-257h-75zM407 376q-42 52 -113 52q-43 0 -83.5 -22.5t-60.5 -54.5v-218q20 -33 60.5 -55.5t83.5 -22.5q71 0 113 52.5t42 134.5t-42 134
z" />
    <glyph glyph-name="q" unicode="q" horiz-adv-x="574" 
d="M424 -184v257q-29 -41 -71 -63t-91 -22q-63 0 -112 31t-76 88.5t-27 134.5t27 134.5t76 88t112 30.5q50 0 92.5 -23t69.5 -61v72h75v-667h-75zM424 351q-20 33 -60 55t-84 22q-71 0 -113 -52t-42 -134t42 -134.5t113 -52.5q44 0 84 22.5t60 55.5v218z" />
    <glyph glyph-name="r" unicode="r" horiz-adv-x="330" 
d="M75 483h75v-78q31 40 72.5 64t88.5 24v-77q-14 3 -30 3q-34 0 -74 -24t-57 -53v-342h-75v483z" />
    <glyph glyph-name="s" unicode="s" horiz-adv-x="465" 
d="M72 118q25 -29 68.5 -49t90.5 -20q54 0 84 23t30 60q0 25 -16.5 40.5t-40.5 23.5t-67 19q-56 13 -90.5 26t-59.5 41t-25 74q0 38 21.5 69.5t62 50.5t96.5 19q109 0 179 -70l-35 -52q-23 27 -61 44t-83 17q-49 0 -78 -21.5t-29 -54.5q0 -31 28.5 -45t89.5 -29
q56 -13 92.5 -27t62.5 -43.5t26 -79.5q0 -64 -50 -105t-140 -41q-123 0 -195 76z" />
    <glyph glyph-name="t" unicode="t" horiz-adv-x="294" 
d="M117 17q-27 29 -27 84v316h-80v66h80v132h75v-132h98v-66h-98v-300q0 -28 12.5 -45t36.5 -17q15 0 29 5.5t22 14.5l22 -56q-33 -31 -90 -31q-53 0 -80 29z" />
    <glyph glyph-name="u" unicode="u" horiz-adv-x="551" 
d="M401 68q-30 -34 -75.5 -57t-96.5 -23q-154 0 -154 154v341h75v-318q0 -60 27.5 -85t80.5 -25q42 0 81.5 21t61.5 52v355h75v-483h-75v68z" />
    <glyph glyph-name="v" unicode="v" horiz-adv-x="490" 
d="M3 483h81l161 -396l160 396h82l-201 -483h-82z" />
    <glyph glyph-name="w" unicode="w" horiz-adv-x="734" 
d="M367 388l-126 -388h-75l-154 483h78l118 -385l127 385h64l127 -385l118 385h78l-154 -483h-75z" />
    <glyph glyph-name="x" unicode="x" horiz-adv-x="486" 
d="M243 198l-145 -198h-86l185 248l-175 235h87l134 -184l134 184h87l-175 -235l186 -248h-87z" />
    <glyph glyph-name="y" unicode="y" horiz-adv-x="490" 
d="M101 -129q26 0 43 11t29 40l32 73l-202 488h81l161 -396l160 396h82l-242 -581q-21 -51 -56.5 -74t-85.5 -24q-30 0 -55 7l12 68q18 -8 41 -8z" />
    <glyph glyph-name="z" unicode="z" horiz-adv-x="472" 
d="M52 58l266 359h-266v66h364v-57l-268 -361h272v-65h-368v58z" />
    <glyph glyph-name="braceleft" unicode="{" horiz-adv-x="260" 
d="M121 -173.5q-29 16.5 -46.5 47.5t-17.5 70v206q0 30 -13.5 49.5t-38.5 19.5v50q25 0 38.5 19.5t13.5 49.5v205q0 40 17.5 70.5t46.5 47.5t61 17h61v-55h-61q-27 0 -46.5 -22.5t-19.5 -57.5v-211q0 -68 -46 -88q46 -20 46 -88v-211q0 -34 19.5 -57t46.5 -23h61v-55h-61
q-32 0 -61 16.5z" />
    <glyph glyph-name="bar" unicode="|" horiz-adv-x="211" 
d="M78 687h55v-707h-55v707z" />
    <glyph glyph-name="braceright" unicode="}" horiz-adv-x="260" 
d="M78 -135q27 0 46.5 23t19.5 57v211q0 68 46 88q-46 20 -46 88v211q0 35 -19.5 57.5t-46.5 22.5h-61v55h61q32 0 61 -16.5t46.5 -47.5t17.5 -71v-205q0 -30 13.5 -49.5t38.5 -19.5v-50q-25 0 -38.5 -19.5t-13.5 -49.5v-206q0 -40 -17.5 -70.5t-46.5 -47t-61 -16.5h-61v55
h61z" />
    <glyph glyph-name="asciitilde" unicode="~" horiz-adv-x="503" 
d="M435 487.5q-30 -64.5 -98 -64.5q-32 0 -53 16t-32.5 38t-24.5 59q-15 40 -27 58.5t-35 18.5q-35 0 -54 -50t-28 -141l-56 7q10 108 40.5 172.5t97.5 64.5q33 0 54 -16t32.5 -38.5t24.5 -58.5q13 -40 25.5 -59t35.5 -19q35 0 54.5 50t27.5 142l56 -7q-10 -108 -40 -172.5z
" />
    <glyph glyph-name="uni00A0" unicode="&#xa0;" horiz-adv-x="258" 
 />
    <glyph glyph-name="exclamdown" unicode="&#xa1;" 
d="M153.5 476.5q16.5 -16.5 16.5 -38.5t-16 -38.5t-39 -16.5q-22 0 -38.5 16.5t-16.5 38.5t16.5 38.5t38.5 16.5t38.5 -16.5zM146 296l16 -480h-93l15 480h62z" />
    <glyph glyph-name="cent" unicode="&#xa2;" horiz-adv-x="495" 
d="M415 118l50 -46q-27 -36 -64 -57.5t-90 -25.5v-89h-59v90q-61 8 -107.5 43t-72 89t-25.5 120q0 65 25.5 119t72 89t107.5 43v72h59v-71q53 -4 90 -25.5t64 -57.5l-50 -46q-39 54 -104 62v-371q64 8 104 62zM159 122.5q34 -49.5 93 -62.5v363q-59 -13 -93 -62t-34 -119
t34 -119.5z" />
    <glyph glyph-name="sterling" unicode="&#xa3;" horiz-adv-x="518" 
d="M508 34q-49 -47 -135 -47q-31 0 -52 6t-46 18q-24 11 -40.5 16.5t-40.5 5.5t-53 -10.5t-65 -29.5l-30 62q64 29 98.5 68.5t34.5 84.5q0 30 -15 60h-145v54h106l-7 8q-35 41 -52.5 73t-17.5 77q0 54 30.5 99t82 71.5t111.5 26.5q68 0 121 -29.5t81 -82.5l-67 -40
q-14 34 -48.5 58t-78.5 24q-59 0 -101 -35t-42 -93q0 -39 15 -66.5t44 -62.5q2 -2 22 -28h150v-54h-121q6 -19 6 -43q0 -78 -76 -132q25 9 52 9q22 0 39 -5.5t40 -16.5q20 -9 35 -14t34 -5q31 0 57 12.5t38 27.5z" />
    <glyph glyph-name="currency" unicode="&#xa4;" horiz-adv-x="598" 
d="M526 254q-12 -38 -34 -68l77 -77l-46 -45l-77 75q-60 -46 -147 -46q-88 0 -148 47l-76 -76l-47 45l77 77q-45 64 -45 147q0 86 46 147l-79 79l47 46l78 -79q62 46 147 46q84 0 147 -45l77 77l46 -46l-78 -78q47 -63 47 -147q0 -41 -12 -79zM386.5 184.5
q36.5 23.5 55.5 63t19 85.5t-19 84.5t-55.5 62t-87.5 23.5q-50 0 -87 -23.5t-56 -62.5t-19 -84q0 -46 19 -85.5t56 -63t87 -23.5q51 0 87.5 23.5z" />
    <glyph glyph-name="yen" unicode="&#xa5;" horiz-adv-x="626" 
d="M389 334h216v-52h-250v-107h250v-53h-250v-122h-83v122h-250v53h250v107h-250v52h215l-228 333h97l207 -310l207 310h97z" />
    <glyph glyph-name="brokenbar" unicode="&#xa6;" horiz-adv-x="211" 
d="M78 687h55v-316h-55v316zM78 296h55v-316h-55v316z" />
    <glyph glyph-name="section" unicode="&#xa7;" horiz-adv-x="468" 
d="M394 141q24 -29 24 -75q0 -69 -52 -108t-138 -39q-67 0 -112 21t-82 57l38 49q25 -30 66 -51t90 -21q53 0 85 23t32 64q0 26 -17 42.5t-42.5 26t-68.5 20.5q-56 15 -89.5 28t-57.5 40t-24 72q0 50 32.5 82.5t82.5 45.5q-56 18 -85.5 47t-29.5 76q0 37 21.5 68t62.5 49.5
t96 18.5q63 0 107 -20t71 -51l-34 -45q-24 30 -62.5 45t-79.5 15q-48 0 -78.5 -22t-30.5 -58q0 -23 16 -37.5t39.5 -22.5t65.5 -18q56 -13 91.5 -26.5t61 -43t25.5 -78.5q0 -42 -23.5 -75t-68.5 -53q44 -17 68 -46zM144 357q-25 -24 -25 -59q0 -27 19 -44t44.5 -25.5
t78.5 -21.5q42 18 62.5 41t20.5 57q0 39 -30.5 59t-82.5 33q-62 -16 -87 -40z" />
    <glyph glyph-name="dieresis" unicode="&#xa8;" horiz-adv-x="272" 
d="M0 571q-14 14 -14 33t14 32.5t33 13.5t32.5 -13.5t13.5 -32.5t-13.5 -33t-32.5 -14t-33 14zM206 571q-14 14 -14 33t14 32.5t33 13.5t33 -13.5t14 -32.5t-14 -33t-33 -14t-33 14z" />
    <glyph glyph-name="copyright" unicode="&#xa9;" horiz-adv-x="778" 
d="M216.5 34.5q-79.5 46.5 -126 126t-46.5 172.5q0 94 46.5 173t125.5 125.5t173 46.5t173 -46.5t125.5 -125.5t46.5 -173t-46.5 -173t-125.5 -125.5t-173 -46.5q-93 0 -172.5 46.5zM232 604.5q-72 -42.5 -114.5 -114.5t-42.5 -157t42.5 -157t114.5 -114.5t157 -42.5
t157 42.5t114.5 114.5t42.5 157t-42.5 157t-114.5 114.5t-157 42.5t-157 -42.5zM391 120q-57 0 -104.5 28t-75.5 77t-28 109t28 108.5t75.5 76.5t104.5 28q90 0 146 -66l-25 -24q-19 26 -52.5 41.5t-68.5 15.5q-45 0 -84.5 -22.5t-63 -64t-23.5 -93.5q0 -51 23.5 -92.5
t63 -65t84.5 -23.5q36 0 68.5 16t52.5 42l26 -25q-57 -66 -147 -66z" />
    <glyph glyph-name="ordfeminine" unicode="&#xaa;" horiz-adv-x="378" 
d="M260 361q-40 -43 -107 -43q-44 0 -78 28t-34 76q0 49 33.5 76t78.5 27q67 0 107 -42v55q0 30 -23 47.5t-56 17.5q-27 0 -53 -11.5t-46 -34.5l-25 37q52 54 131 54q57 0 93 -27t36 -84v-211h-57v35zM260 450q-13 18 -36 28t-49 10q-33 0 -54.5 -18.5t-21.5 -47.5
q0 -30 21.5 -48t54.5 -18q26 0 49 10t36 28v56z" />
    <glyph glyph-name="guillemotleft" unicode="&#xab;" horiz-adv-x="439" 
d="M30 243l160 177h75l-160 -177l160 -180h-75zM174 243l160 177h75l-160 -177l160 -180h-75z" />
    <glyph glyph-name="logicalnot" unicode="&#xac;" horiz-adv-x="504" 
d="M415 211v193h-386v53h441v-246h-55z" />
    <glyph glyph-name="uni00AD" unicode="&#xad;" horiz-adv-x="300" 
d="M30 275h240v-66h-240v66z" />
    <glyph glyph-name="registered" unicode="&#xae;" horiz-adv-x="494" 
d="M140.5 281.5q-48.5 28.5 -77 77t-28.5 106.5t28.5 106.5t77 77t106.5 28.5t106.5 -28.5t77 -77t28.5 -106.5t-28.5 -106.5t-77 -77t-106.5 -28.5t-106.5 28.5zM154.5 623.5q-42.5 -24.5 -67 -66.5t-24.5 -92t24.5 -92t67 -67t92.5 -25t92 25t66.5 67t24.5 92t-24.5 92
t-66.5 66.5t-92 24.5t-92.5 -24.5zM242 439h-44v-96h-32v243h99q32 0 54.5 -20.5t22.5 -53.5q0 -25 -11.5 -41t-26.5 -23.5t-24 -7.5l65 -97h-40zM198 558v-90h67q19 0 31.5 12.5t12.5 31.5q0 20 -12.5 33t-31.5 13h-67z" />
    <glyph glyph-name="macron" unicode="&#xaf;" horiz-adv-x="363" 
d="M0 620h363v-48h-363v48z" />
    <glyph glyph-name="degree" unicode="&#xb0;" horiz-adv-x="290" 
d="M58.5 468.5q-35.5 35.5 -35.5 86.5q0 50 35.5 86t85.5 36q51 0 87 -36t36 -86q0 -51 -36 -86.5t-87 -35.5q-50 0 -85.5 35.5zM93 607q-21 -22 -21 -52q0 -31 21 -52.5t51 -21.5q31 0 53 21.5t22 52.5q0 30 -22 52t-53 22q-30 0 -51 -22z" />
    <glyph glyph-name="plusminus" unicode="&#xb1;" horiz-adv-x="499" 
d="M278 110h-57v214h-192v52h192v207h57v-207h192v-52h-192v-214zM29 52h441v-52h-441v52z" />
    <glyph glyph-name="uni00B2" unicode="&#xb2;" horiz-adv-x="388" 
d="M50 466q124 88 176.5 140.5t52.5 98.5q0 36 -25 54.5t-60 18.5q-36 0 -65.5 -15t-46.5 -37l-33 38q24 31 63.5 47t83.5 16q60 0 101.5 -30.5t41.5 -87.5q0 -56 -50 -111.5t-151 -127.5h203v-49h-291v45z" />
    <glyph glyph-name="uni00B3" unicode="&#xb3;" horiz-adv-x="388" 
d="M102 432q-39 18 -60 47l32 38q20 -25 51 -39.5t65 -14.5q43 0 68 19t25 51q0 36 -28.5 52.5t-75.5 16.5q-34 0 -40 -1v50q7 -1 39 -1q45 0 71.5 15.5t26.5 48.5q0 30 -25.5 47t-63.5 17q-64 0 -109 -49l-31 36q25 28 61.5 45t83.5 17q64 0 104 -29t40 -78
q0 -40 -27 -63.5t-62 -29.5q34 -3 65 -28t31 -69q0 -52 -41 -84t-110 -32q-51 0 -90 18z" />
    <glyph glyph-name="acute" unicode="&#xb4;" horiz-adv-x="226" 
d="M0 556l148 144h78l-169 -144h-57z" />
    <glyph glyph-name="mu" unicode="&#xb5;" horiz-adv-x="565" 
d="M75 -184v667h75v-318q0 -112 110 -112q41 0 80 22t61 53v355h75v-370q0 -27 12 -42.5t35 -15.5q11 0 19 2l6 -65q-22 -4 -40 -4q-88 0 -104 86q-27 -37 -68 -61.5t-85 -24.5q-75 0 -101 48v-220h-75z" />
    <glyph glyph-name="paragraph" unicode="&#xb6;" horiz-adv-x="449" 
d="M333 622h-89v-722h-45v423q-47 0 -86.5 23t-62.5 62.5t-23 86.5t23 86.5t62.5 62.5t86.5 23h179v-767h-45v722z" />
    <glyph glyph-name="periodcentered" unicode="&#xb7;" 
d="M76.5 206q-16.5 16 -16.5 38q0 23 16.5 39t38.5 16q23 0 39 -16t16 -39q0 -22 -16.5 -38t-38.5 -16t-38.5 16z" />
    <glyph glyph-name="cedilla" unicode="&#xb8;" horiz-adv-x="205" 
d="M19 -123q35 -29 80 -29q25 0 43 11.5t18 30.5q0 16 -9.5 25.5t-27.5 9.5q-10 0 -20.5 -4.5t-17.5 -12.5l-33 19l31 84h45l-26 -66q16 11 37 11q29 0 47.5 -18.5t18.5 -48.5q0 -36 -30 -58t-74 -22q-31 0 -58 8.5t-43 21.5z" />
    <glyph glyph-name="uni00B9" unicode="&#xb9;" horiz-adv-x="235" 
d="M115 743l-66 -69l-35 37l108 110h53v-400h-60v322z" />
    <glyph glyph-name="ordmasculine" unicode="&#xba;" horiz-adv-x="405" 
d="M60 566.5q20 37.5 57 59.5t85 22q49 0 86 -22t57 -59.5t20 -83.5t-20 -83.5t-57 -59.5t-86 -22q-48 0 -85 22t-57 59.5t-20 83.5t20 83.5zM278 565.5q-28 32.5 -76 32.5q-47 0 -74.5 -32.5t-27.5 -82.5q0 -51 27.5 -84t74.5 -33q48 0 76 33t28 84q0 50 -28 82.5z" />
    <glyph glyph-name="guillemotright" unicode="&#xbb;" horiz-adv-x="439" 
d="M30 63l160 180l-160 177h75l160 -177l-160 -180h-75zM174 63l160 180l-160 177h75l160 -177l-160 -180h-75z" />
    <glyph glyph-name="onequarter" unicode="&#xbc;" horiz-adv-x="770" 
d="M108 0l426 667h56l-427 -667h-55zM675 0h-59v100h-196v44l172 256h83v-251h58v-49h-58v-100zM480 149h136v198zM115 589l-66 -69l-35 37l108 110h53v-400h-60v322z" />
    <glyph glyph-name="onehalf" unicode="&#xbd;" horiz-adv-x="807" 
d="M108 0l426 667h56l-427 -667h-55zM468 45q124 88 176.5 140.5t52.5 98.5q0 36 -25 54.5t-60 18.5q-36 0 -65.5 -15t-46.5 -37l-33 38q24 31 63.5 47t83.5 16q60 0 101.5 -30.5t41.5 -87.5q0 -56 -50 -111.5t-151 -127.5h203v-49h-291v45zM115 589l-66 -69l-35 37l108 110
h53v-400h-60v322z" />
    <glyph glyph-name="threequarters" unicode="&#xbe;" horiz-adv-x="878" 
d="M216 0l426 667h56l-427 -667h-55zM784 0h-59v100h-196v44l172 256h83v-251h58v-49h-58v-100zM589 149h136v198zM102 278q-39 18 -60 47l32 38q20 -25 51 -39.5t65 -14.5q43 0 68 19t25 51q0 36 -28.5 52.5t-75.5 16.5q-34 0 -40 -1v50q7 -1 39 -1q45 0 71.5 15.5
t26.5 48.5q0 30 -25.5 47t-63.5 17q-64 0 -109 -49l-31 36q25 28 61.5 45t83.5 17q64 0 104 -29t40 -78q0 -40 -27 -63.5t-62 -29.5q34 -3 65 -28t31 -69q0 -52 -41 -84t-110 -32q-51 0 -90 18z" />
    <glyph glyph-name="questiondown" unicode="&#xbf;" horiz-adv-x="394" 
d="M276.5 399q-16.5 -16 -38.5 -16t-38.5 16t-16.5 38q0 23 16.5 39.5t38.5 16.5t38.5 -16.5t16.5 -39.5q0 -22 -16.5 -38zM284 159q-13 -24 -32 -40.5t-51 -38.5q-42 -29 -63 -52.5t-21 -57.5q0 -39 30.5 -65.5t86.5 -26.5q54 0 92 21t68 60l49 -53q-37 -49 -91.5 -75.5
t-124.5 -26.5q-59 0 -103.5 20.5t-68.5 56t-24 78.5q0 55 29 90t83 71q41 29 61 50t20 51q0 12 -7 25.5t-19 22.5l60 27q39 -35 39 -82q0 -31 -13 -55z" />
    <glyph glyph-name="Agrave" unicode="&#xc0;" horiz-adv-x="658" 
d="M160 867h78l148 -144h-57zM495 148h-332l-59 -148h-95l268 667h103l269 -667h-95zM187 222h283l-141 359z" />
    <glyph glyph-name="Aacute" unicode="&#xc1;" horiz-adv-x="658" 
d="M272 723l148 144h78l-169 -144h-57zM495 148h-332l-59 -148h-95l268 667h103l269 -667h-95zM187 222h283l-141 359z" />
    <glyph glyph-name="Acircumflex" unicode="&#xc2;" horiz-adv-x="658" 
d="M329 829l-80 -106h-51l95 144h72l98 -144h-51zM495 148h-332l-59 -148h-95l268 667h103l269 -667h-95zM187 222h283l-141 359z" />
    <glyph glyph-name="Atilde" unicode="&#xc3;" horiz-adv-x="658" 
d="M290.5 803.5q-9.5 9.5 -24.5 9.5q-21 0 -34.5 -21.5t-13.5 -64.5h-45q0 60 25.5 97t71.5 37q26 0 41.5 -13.5t33.5 -39.5q15 -21 24 -30t24 -9q21 0 34.5 21.5t13.5 64.5h45q0 -60 -25.5 -97t-71.5 -37q-27 0 -42.5 13.5t-33.5 39.5q-13 20 -22.5 29.5zM495 148h-332
l-59 -148h-95l268 667h103l269 -667h-95zM187 222h283l-141 359z" />
    <glyph glyph-name="Adieresis" unicode="&#xc4;" horiz-adv-x="658" 
d="M194 738q-14 14 -14 33t14 32.5t33 13.5t32.5 -13.5t13.5 -32.5t-13.5 -33t-32.5 -14t-33 14zM400 738q-14 14 -14 33t14 32.5t33 13.5t33 -13.5t14 -32.5t-14 -33t-33 -14t-33 14zM495 148h-332l-59 -148h-95l268 667h103l269 -667h-95zM187 222h283l-141 359z" />
    <glyph glyph-name="Aring" unicode="&#xc5;" horiz-adv-x="658" 
d="M260 858q29 29 69 29t69 -29t29 -70q0 -40 -28.5 -69t-69.5 -29q-40 0 -69 29t-29 69q0 41 29 70zM370.5 830q-16.5 17 -41.5 17q-24 0 -41 -17t-17 -42q0 -24 17 -41.5t41 -17.5t41 17.5t17 41.5q0 25 -16.5 42zM495 148h-332l-59 -148h-95l268 667h103l269 -667h-95z
M187 222h283l-141 359z" />
    <glyph glyph-name="AE" unicode="&#xc6;" horiz-adv-x="947" 
d="M456 148h-263l-91 -148h-95l416 667h470v-74h-354v-215h347v-74h-347v-230h354v-74h-437v148zM234 222h222v359z" />
    <glyph glyph-name="Ccedilla" unicode="&#xc7;" horiz-adv-x="676" 
d="M404 -12l-15 -39q16 11 37 11q29 0 47.5 -18.5t18.5 -48.5q0 -36 -30 -58t-74 -22q-31 0 -58 8.5t-43 21.5l19 38q35 -29 80 -29q25 0 43 11.5t18 30.5q0 16 -9.5 25.5t-27.5 9.5q-10 0 -20.5 -4.5t-17.5 -12.5l-33 19l22 58q-88 8 -159 53.5t-111 120.5t-40 170
q0 100 45.5 179t123.5 122.5t174 43.5q84 0 147 -35.5t106 -96.5l-70 -39q-29 43 -78 70t-105 27q-72 0 -131 -34.5t-92.5 -96.5t-33.5 -140t33.5 -139.5t92.5 -96.5t131 -35q56 0 105 26.5t78 70.5l71 -39q-93 -128 -244 -132z" />
    <glyph glyph-name="Egrave" unicode="&#xc8;" horiz-adv-x="569" 
d="M127 867h78l148 -144h-57zM78 667h437v-74h-354v-215h347v-74h-347v-230h354v-74h-437v667z" />
    <glyph glyph-name="Eacute" unicode="&#xc9;" horiz-adv-x="569" 
d="M239 723l148 144h78l-169 -144h-57zM78 667h437v-74h-354v-215h347v-74h-347v-230h354v-74h-437v667z" />
    <glyph glyph-name="Ecircumflex" unicode="&#xca;" horiz-adv-x="569" 
d="M294 829l-80 -106h-51l95 144h72l98 -144h-51zM78 667h437v-74h-354v-215h347v-74h-347v-230h354v-74h-437v667z" />
    <glyph glyph-name="Edieresis" unicode="&#xcb;" horiz-adv-x="569" 
d="M160 738q-14 14 -14 33t14 32.5t33 13.5t32.5 -13.5t13.5 -32.5t-13.5 -33t-32.5 -14t-33 14zM366 738q-14 14 -14 33t14 32.5t33 13.5t33 -13.5t14 -32.5t-14 -33t-33 -14t-33 14zM78 667h437v-74h-354v-215h347v-74h-347v-230h354v-74h-437v667z" />
    <glyph glyph-name="Igrave" unicode="&#xcc;" horiz-adv-x="239" 
d="M-50 867h78l148 -144h-57zM78 667h83v-667h-83v667z" />
    <glyph glyph-name="Iacute" unicode="&#xcd;" horiz-adv-x="239" 
d="M63 723l148 144h78l-169 -144h-57zM78 667h83v-667h-83v667z" />
    <glyph glyph-name="Icircumflex" unicode="&#xce;" horiz-adv-x="239" 
d="M119 829l-80 -106h-51l95 144h72l98 -144h-51zM78 667h83v-667h-83v667z" />
    <glyph glyph-name="Idieresis" unicode="&#xcf;" horiz-adv-x="239" 
d="M-16 738q-14 14 -14 33t14 32.5t33 13.5t32.5 -13.5t13.5 -32.5t-13.5 -33t-32.5 -14t-33 14zM190 738q-14 14 -14 33t14 32.5t33 13.5t33 -13.5t14 -32.5t-14 -33t-33 -14t-33 14zM78 667h83v-667h-83v667z" />
    <glyph glyph-name="Eth" unicode="&#xd0;" horiz-adv-x="728" 
d="M513 623.5q78 -43.5 120.5 -120t42.5 -170.5q0 -95 -42.5 -170.5t-120.5 -119t-179 -43.5h-228v298h-96v63h96v306h228q101 0 179 -43.5zM471 108.5q58 34.5 88.5 93.5t30.5 131q0 73 -30 132t-88 93.5t-138 34.5h-145v-232h170v-63h-170v-224h145q79 0 137 34.5z" />
    <glyph glyph-name="Ntilde" unicode="&#xd1;" horiz-adv-x="708" 
d="M313.5 803.5q-9.5 9.5 -24.5 9.5q-21 0 -34.5 -21.5t-13.5 -64.5h-45q0 60 25.5 97t71.5 37q26 0 41.5 -13.5t33.5 -39.5q15 -21 24 -30t24 -9q21 0 34.5 21.5t13.5 64.5h45q0 -60 -25.5 -97t-71.5 -37q-27 0 -42.5 13.5t-33.5 39.5q-13 20 -22.5 29.5zM161 532v-532h-83
v667h85l384 -521v521h83v-667h-80z" />
    <glyph glyph-name="Ograve" unicode="&#xd2;" horiz-adv-x="765" 
d="M214 867h78l148 -144h-57zM92.5 509.5q41.5 78.5 117 123.5t172.5 45t172 -45t117 -123.5t42 -176.5t-42 -176.5t-117 -123.5t-172 -45t-172.5 45t-117 123.5t-41.5 176.5t41.5 176.5zM596.5 472.5q-30.5 61.5 -86 96.5t-128.5 35q-74 0 -129.5 -35t-85.5 -96.5
t-30 -139.5q0 -77 30 -139t86 -97t129 -35t128.5 35t86 97t30.5 139q0 78 -30.5 139.5z" />
    <glyph glyph-name="Oacute" unicode="&#xd3;" horiz-adv-x="765" 
d="M326 723l148 144h78l-169 -144h-57zM92.5 509.5q41.5 78.5 117 123.5t172.5 45t172 -45t117 -123.5t42 -176.5t-42 -176.5t-117 -123.5t-172 -45t-172.5 45t-117 123.5t-41.5 176.5t41.5 176.5zM596.5 472.5q-30.5 61.5 -86 96.5t-128.5 35q-74 0 -129.5 -35t-85.5 -96.5
t-30 -139.5q0 -77 30 -139t86 -97t129 -35t128.5 35t86 97t30.5 139q0 78 -30.5 139.5z" />
    <glyph glyph-name="Ocircumflex" unicode="&#xd4;" horiz-adv-x="765" 
d="M383 829l-80 -106h-51l95 144h72l98 -144h-51zM92.5 509.5q41.5 78.5 117 123.5t172.5 45t172 -45t117 -123.5t42 -176.5t-42 -176.5t-117 -123.5t-172 -45t-172.5 45t-117 123.5t-41.5 176.5t41.5 176.5zM596.5 472.5q-30.5 61.5 -86 96.5t-128.5 35q-74 0 -129.5 -35
t-85.5 -96.5t-30 -139.5q0 -77 30 -139t86 -97t129 -35t128.5 35t86 97t30.5 139q0 78 -30.5 139.5z" />
    <glyph glyph-name="Otilde" unicode="&#xd5;" horiz-adv-x="765" 
d="M343.5 803.5q-9.5 9.5 -24.5 9.5q-21 0 -34.5 -21.5t-13.5 -64.5h-45q0 60 25.5 97t71.5 37q26 0 41.5 -13.5t33.5 -39.5q15 -21 24 -30t24 -9q21 0 34.5 21.5t13.5 64.5h45q0 -60 -25.5 -97t-71.5 -37q-27 0 -42.5 13.5t-33.5 39.5q-13 20 -22.5 29.5zM92.5 509.5
q41.5 78.5 117 123.5t172.5 45t172 -45t117 -123.5t42 -176.5t-42 -176.5t-117 -123.5t-172 -45t-172.5 45t-117 123.5t-41.5 176.5t41.5 176.5zM596.5 472.5q-30.5 61.5 -86 96.5t-128.5 35q-74 0 -129.5 -35t-85.5 -96.5t-30 -139.5q0 -77 30 -139t86 -97t129 -35
t128.5 35t86 97t30.5 139q0 78 -30.5 139.5z" />
    <glyph glyph-name="Odieresis" unicode="&#xd6;" horiz-adv-x="765" 
d="M246 738q-14 14 -14 33t14 32.5t33 13.5t32.5 -13.5t13.5 -32.5t-13.5 -33t-32.5 -14t-33 14zM452 738q-14 14 -14 33t14 32.5t33 13.5t33 -13.5t14 -32.5t-14 -33t-33 -14t-33 14zM92.5 509.5q41.5 78.5 117 123.5t172.5 45t172 -45t117 -123.5t42 -176.5t-42 -176.5
t-117 -123.5t-172 -45t-172.5 45t-117 123.5t-41.5 176.5t41.5 176.5zM596.5 472.5q-30.5 61.5 -86 96.5t-128.5 35q-74 0 -129.5 -35t-85.5 -96.5t-30 -139.5q0 -77 30 -139t86 -97t129 -35t128.5 35t86 97t30.5 139q0 78 -30.5 139.5z" />
    <glyph glyph-name="multiply" unicode="&#xd7;" horiz-adv-x="499" 
d="M101 148l-37 37l148 149l-148 148l37 38l148 -149l149 149l37 -38l-148 -148l148 -149l-37 -37l-149 149z" />
    <glyph glyph-name="Oslash" unicode="&#xd8;" horiz-adv-x="765" 
d="M682 487.5q31 -70.5 31 -154.5q0 -98 -42 -176.5t-117 -123.5t-172 -45t-173 45l-22 -33h-66l44 65q-54 48 -84 117t-30 151q0 98 41.5 176.5t117 123.5t172.5 45q92 0 167 -42l21 31h66l-42 -62q57 -47 88 -117.5zM156 220.5q19 -51.5 54 -88.5l296 440q-58 32 -124 32
q-74 0 -129.5 -35t-85.5 -96.5t-30 -139.5q0 -61 19 -112.5zM510.5 97q55.5 35 86 97t30.5 139q0 63 -20 116t-57 89l-297 -441q57 -35 129 -35q73 0 128.5 35z" />
    <glyph glyph-name="Ugrave" unicode="&#xd9;" horiz-adv-x="700" 
d="M181 867h78l148 -144h-57zM78 667h83v-406q0 -93 49 -146t140 -53t140 53t49 146v406h83v-407q0 -127 -69.5 -199.5t-202.5 -72.5t-202.5 72.5t-69.5 198.5v408z" />
    <glyph glyph-name="Uacute" unicode="&#xda;" horiz-adv-x="700" 
d="M293 723l148 144h78l-169 -144h-57zM78 667h83v-406q0 -93 49 -146t140 -53t140 53t49 146v406h83v-407q0 -127 -69.5 -199.5t-202.5 -72.5t-202.5 72.5t-69.5 198.5v408z" />
    <glyph glyph-name="Ucircumflex" unicode="&#xdb;" horiz-adv-x="700" 
d="M351 829l-80 -106h-51l95 144h72l98 -144h-51zM78 667h83v-406q0 -93 49 -146t140 -53t140 53t49 146v406h83v-407q0 -127 -69.5 -199.5t-202.5 -72.5t-202.5 72.5t-69.5 198.5v408z" />
    <glyph glyph-name="Udieresis" unicode="&#xdc;" horiz-adv-x="700" 
d="M215 738q-14 14 -14 33t14 32.5t33 13.5t32.5 -13.5t13.5 -32.5t-13.5 -33t-32.5 -14t-33 14zM421 738q-14 14 -14 33t14 32.5t33 13.5t33 -13.5t14 -32.5t-14 -33t-33 -14t-33 14zM78 667h83v-406q0 -93 49 -146t140 -53t140 53t49 146v406h83v-407q0 -127 -69.5 -199.5
t-202.5 -72.5t-202.5 72.5t-69.5 198.5v408z" />
    <glyph glyph-name="Yacute" unicode="&#xdd;" horiz-adv-x="626" 
d="M256 723l148 144h78l-169 -144h-57zM272 282l-263 385h97l207 -310l207 310h97l-262 -385v-282h-83v282z" />
    <glyph glyph-name="Thorn" unicode="&#xde;" horiz-adv-x="587" 
d="M78 667h83v-119h185q65 0 112.5 -27t72 -73.5t24.5 -101.5t-25 -100.5t-72.5 -72.5t-111.5 -27h-185v-146h-83v667zM432 438q-37 36 -96 36h-175v-254h175q59 0 96 35t37 91t-37 92z" />
    <glyph glyph-name="germandbls" unicode="&#xdf;" horiz-adv-x="597" 
d="M284.5 8q-41.5 20 -78.5 58l38 52q23 -30 61.5 -49.5t86.5 -19.5q54 0 83.5 24.5t29.5 59.5q0 24 -15.5 39.5t-39 24.5t-65.5 20q-52 13 -86 26t-57.5 40.5t-23.5 72.5q0 41 23 67t64 52q31 21 45 34.5t14 32.5q0 32 -30 50t-69 18q-49 0 -82 -30.5t-33 -80.5v-499h-75
v499q0 49 23.5 89.5t67 64.5t100.5 24q72 0 123.5 -34.5t51.5 -91.5q0 -39 -21.5 -62.5t-62.5 -50.5q-33 -22 -49.5 -39t-16.5 -42q0 -30 27.5 -44.5t85.5 -27.5q54 -13 89 -27t60 -43.5t25 -79.5q0 -40 -21 -73.5t-63 -53.5t-102 -20q-66 0 -107.5 20z" />
    <glyph glyph-name="agrave" unicode="&#xe0;" horiz-adv-x="527" 
d="M377 55q-61 -67 -160 -67q-43 0 -81.5 18.5t-63 55t-24.5 86.5q0 51 24.5 87t63 54t81.5 18q103 0 160 -66v87q0 48 -34 75t-88 27q-44 0 -80 -16.5t-68 -50.5l-35 52q39 41 86.5 60.5t106.5 19.5q83 0 135 -40t52 -123v-332h-75v55zM377 193q-21 29 -56.5 44.5
t-76.5 15.5q-52 0 -85.5 -29.5t-33.5 -76.5q0 -46 33.5 -75.5t85.5 -29.5q41 0 76.5 15.5t56.5 44.5v91zM96 700h78l148 -144h-57z" />
    <glyph glyph-name="aacute" unicode="&#xe1;" horiz-adv-x="527" 
d="M377 55q-61 -67 -160 -67q-43 0 -81.5 18.5t-63 55t-24.5 86.5q0 51 24.5 87t63 54t81.5 18q103 0 160 -66v87q0 48 -34 75t-88 27q-44 0 -80 -16.5t-68 -50.5l-35 52q39 41 86.5 60.5t106.5 19.5q83 0 135 -40t52 -123v-332h-75v55zM377 193q-21 29 -56.5 44.5
t-76.5 15.5q-52 0 -85.5 -29.5t-33.5 -76.5q0 -46 33.5 -75.5t85.5 -29.5q41 0 76.5 15.5t56.5 44.5v91zM208 556l148 144h78l-169 -144h-57z" />
    <glyph glyph-name="acircumflex" unicode="&#xe2;" horiz-adv-x="527" 
d="M377 55q-61 -67 -160 -67q-43 0 -81.5 18.5t-63 55t-24.5 86.5q0 51 24.5 87t63 54t81.5 18q103 0 160 -66v87q0 48 -34 75t-88 27q-44 0 -80 -16.5t-68 -50.5l-35 52q39 41 86.5 60.5t106.5 19.5q83 0 135 -40t52 -123v-332h-75v55zM377 193q-21 29 -56.5 44.5
t-76.5 15.5q-52 0 -85.5 -29.5t-33.5 -76.5q0 -46 33.5 -75.5t85.5 -29.5q41 0 76.5 15.5t56.5 44.5v91zM264 662l-80 -106h-51l95 144h72l98 -144h-51z" />
    <glyph glyph-name="atilde" unicode="&#xe3;" horiz-adv-x="527" 
d="M377 55q-61 -67 -160 -67q-43 0 -81.5 18.5t-63 55t-24.5 86.5q0 51 24.5 87t63 54t81.5 18q103 0 160 -66v87q0 48 -34 75t-88 27q-44 0 -80 -16.5t-68 -50.5l-35 52q39 41 86.5 60.5t106.5 19.5q83 0 135 -40t52 -123v-332h-75v55zM377 193q-21 29 -56.5 44.5
t-76.5 15.5q-52 0 -85.5 -29.5t-33.5 -76.5q0 -46 33.5 -75.5t85.5 -29.5q41 0 76.5 15.5t56.5 44.5v91zM226.5 636.5q-9.5 9.5 -24.5 9.5q-21 0 -34.5 -21.5t-13.5 -64.5h-45q0 60 25.5 97t71.5 37q26 0 41.5 -13.5t33.5 -39.5q15 -21 24 -30t24 -9q21 0 34.5 21.5
t13.5 64.5h45q0 -60 -25.5 -97t-71.5 -37q-27 0 -42.5 13.5t-33.5 39.5q-13 20 -22.5 29.5z" />
    <glyph glyph-name="adieresis" unicode="&#xe4;" horiz-adv-x="527" 
d="M377 55q-61 -67 -160 -67q-43 0 -81.5 18.5t-63 55t-24.5 86.5q0 51 24.5 87t63 54t81.5 18q103 0 160 -66v87q0 48 -34 75t-88 27q-44 0 -80 -16.5t-68 -50.5l-35 52q39 41 86.5 60.5t106.5 19.5q83 0 135 -40t52 -123v-332h-75v55zM377 193q-21 29 -56.5 44.5
t-76.5 15.5q-52 0 -85.5 -29.5t-33.5 -76.5q0 -46 33.5 -75.5t85.5 -29.5q41 0 76.5 15.5t56.5 44.5v91zM129 571q-14 14 -14 33t14 32.5t33 13.5t32.5 -13.5t13.5 -32.5t-13.5 -33t-32.5 -14t-33 14zM335 571q-14 14 -14 33t14 32.5t33 13.5t33 -13.5t14 -32.5t-14 -33
t-33 -14t-33 14z" />
    <glyph glyph-name="aring" unicode="&#xe5;" horiz-adv-x="527" 
d="M377 55q-61 -67 -160 -67q-43 0 -81.5 18.5t-63 55t-24.5 86.5q0 51 24.5 87t63 54t81.5 18q103 0 160 -66v87q0 48 -34 75t-88 27q-44 0 -80 -16.5t-68 -50.5l-35 52q39 41 86.5 60.5t106.5 19.5q83 0 135 -40t52 -123v-332h-75v55zM377 193q-21 29 -56.5 44.5
t-76.5 15.5q-52 0 -85.5 -29.5t-33.5 -76.5q0 -46 33.5 -75.5t85.5 -29.5q41 0 76.5 15.5t56.5 44.5v91zM196 711q29 29 69 29t69 -29t29 -70q0 -40 -28.5 -69t-69.5 -29q-40 0 -69 29t-29 69q0 41 29 70zM306.5 683q-16.5 17 -41.5 17q-24 0 -41 -17t-17 -42
q0 -24 17 -41.5t41 -17.5t41 17.5t17 41.5q0 25 -16.5 42z" />
    <glyph glyph-name="ae" unicode="&#xe6;" horiz-adv-x="889" 
d="M524 99q43 -47 113 -47q40 0 76 15.5t63 45.5l36 -51q-35 -36 -81 -55t-97 -19q-65 0 -114.5 28.5t-78.5 87.5q-26 -52 -79.5 -84t-119.5 -32q-82 0 -138 42.5t-56 117.5q0 50 24.5 86t65 54.5t88.5 18.5q112 0 175 -64v86q0 47 -36.5 74t-96.5 27q-48 0 -87 -16t-74 -51
l-35 52q79 80 205 80q64 0 111 -26t60 -79q27 47 72 76t107 29q67 0 116 -34t74.5 -93t25.5 -132v-19h-367q5 -71 48 -118zM752.5 348q-15.5 37 -48.5 61t-82 24q-45 0 -77.5 -24t-49.5 -61t-19 -76h293q-1 39 -16.5 76zM338 237q-39 16 -82 16q-59 0 -95 -27.5t-36 -73.5
q0 -45 36 -72.5t95 -27.5q41 0 74 18.5t52 48t19 61.5v12q-24 29 -63 45z" />
    <glyph glyph-name="ccedilla" unicode="&#xe7;" horiz-adv-x="495" 
d="M415 118l50 -46q-59 -78 -159 -83l-16 -42q16 11 37 11q29 0 47.5 -18.5t18.5 -48.5q0 -36 -29.5 -58t-74.5 -22q-31 0 -58 8.5t-43 21.5l19 38q36 -29 80 -29q26 0 44 11.5t18 30.5q0 16 -10 25.5t-28 9.5q-10 0 -20.5 -4.5t-16.5 -12.5l-34 19l22 60q-64 6 -113 40.5
t-75.5 90t-26.5 122.5q0 71 30.5 129t85 91t125.5 33q62 0 104 -22t73 -62l-50 -46q-46 63 -123 63q-76 0 -121.5 -52t-45.5 -134t45.5 -134.5t121.5 -52.5t123 63z" />
    <glyph glyph-name="egrave" unicode="&#xe8;" horiz-adv-x="563" 
d="M78 369q31 58 85 92t122 34q71 0 123.5 -34t80.5 -93t28 -132v-19h-391q5 -71 52 -119t122 -48q42 0 81.5 16t67.5 45l36 -49q-74 -74 -192 -74q-71 0 -127 32t-87.5 90t-31.5 132q0 69 31 127zM200 409q-35 -24 -53.5 -61t-20.5 -76h317q-1 39 -18.5 76t-53 61t-87.5 24
q-49 0 -84 -24zM116 700h78l148 -144h-57z" />
    <glyph glyph-name="eacute" unicode="&#xe9;" horiz-adv-x="563" 
d="M78 369q31 58 85 92t122 34q71 0 123.5 -34t80.5 -93t28 -132v-19h-391q5 -71 52 -119t122 -48q42 0 81.5 16t67.5 45l36 -49q-74 -74 -192 -74q-71 0 -127 32t-87.5 90t-31.5 132q0 69 31 127zM200 409q-35 -24 -53.5 -61t-20.5 -76h317q-1 39 -18.5 76t-53 61t-87.5 24
q-49 0 -84 -24zM228 556l148 144h78l-169 -144h-57z" />
    <glyph glyph-name="ecircumflex" unicode="&#xea;" horiz-adv-x="563" 
d="M78 369q31 58 85 92t122 34q71 0 123.5 -34t80.5 -93t28 -132v-19h-391q5 -71 52 -119t122 -48q42 0 81.5 16t67.5 45l36 -49q-74 -74 -192 -74q-71 0 -127 32t-87.5 90t-31.5 132q0 69 31 127zM200 409q-35 -24 -53.5 -61t-20.5 -76h317q-1 39 -18.5 76t-53 61t-87.5 24
q-49 0 -84 -24zM285 662l-80 -106h-51l95 144h72l98 -144h-51z" />
    <glyph glyph-name="edieresis" unicode="&#xeb;" horiz-adv-x="563" 
d="M78 369q31 58 85 92t122 34q71 0 123.5 -34t80.5 -93t28 -132v-19h-391q5 -71 52 -119t122 -48q42 0 81.5 16t67.5 45l36 -49q-74 -74 -192 -74q-71 0 -127 32t-87.5 90t-31.5 132q0 69 31 127zM200 409q-35 -24 -53.5 -61t-20.5 -76h317q-1 39 -18.5 76t-53 61t-87.5 24
q-49 0 -84 -24zM150 571q-14 14 -14 33t14 32.5t33 13.5t32.5 -13.5t13.5 -32.5t-13.5 -33t-32.5 -14t-33 14zM356 571q-14 14 -14 33t14 32.5t33 13.5t33 -13.5t14 -32.5t-14 -33t-33 -14t-33 14z" />
    <glyph glyph-name="igrave" unicode="&#xec;" horiz-adv-x="225" 
d="M-57 700h78l148 -144h-57zM75 483h75v-483h-75v483z" />
    <glyph glyph-name="iacute" unicode="&#xed;" horiz-adv-x="225" 
d="M56 556l148 144h78l-169 -144h-57zM75 483h75v-483h-75v483z" />
    <glyph glyph-name="icircumflex" unicode="&#xee;" horiz-adv-x="225" 
d="M111 662l-80 -106h-51l95 144h72l98 -144h-51zM75 483h75v-483h-75v483z" />
    <glyph glyph-name="idieresis" unicode="&#xef;" horiz-adv-x="225" 
d="M-23 571q-14 14 -14 33t14 32.5t33 13.5t32.5 -13.5t13.5 -32.5t-13.5 -33t-32.5 -14t-33 14zM183 571q-14 14 -14 33t14 32.5t33 13.5t33 -13.5t14 -32.5t-14 -33t-33 -14t-33 14zM75 483h75v-483h-75v483z" />
    <glyph glyph-name="eth" unicode="&#xf0;" horiz-adv-x="572" 
d="M525 247q0 -74 -29.5 -133t-83.5 -92.5t-126 -33.5q-71 0 -125 32t-84 88t-30 126q0 69 28 125t78.5 88t113.5 32q48 0 87 -21.5t71 -67.5q-49 88 -160 171l-143 -64l-18 42l118 52q-36 24 -75 48l41 62q67 -41 112 -76l108 48l17 -41l-85 -38q185 -159 185 -347z
M372 79.5q36 24.5 55 65.5t19 89t-19 88.5t-55 65t-86 24.5t-86.5 -24.5t-55.5 -65t-19 -88.5t19 -89t55.5 -65.5t86.5 -24.5t86 24.5z" />
    <glyph glyph-name="ntilde" unicode="&#xf1;" horiz-adv-x="551" 
d="M401 316q0 61 -28 86.5t-80 25.5q-42 0 -81.5 -22t-61.5 -53v-353h-75v483h75v-70q28 33 75 57.5t97 24.5q154 0 154 -156v-339h-75v316zM237.5 636.5q-9.5 9.5 -24.5 9.5q-21 0 -34.5 -21.5t-13.5 -64.5h-45q0 60 25.5 97t71.5 37q26 0 41.5 -13.5t33.5 -39.5
q15 -21 24 -30t24 -9q21 0 34.5 21.5t13.5 64.5h45q0 -60 -25.5 -97t-71.5 -37q-27 0 -42.5 13.5t-33.5 39.5q-13 20 -22.5 29.5z" />
    <glyph glyph-name="ograve" unicode="&#xf2;" horiz-adv-x="572" 
d="M160 22q-54 34 -83.5 92t-29.5 128t29.5 128t83.5 91.5t126 33.5t126 -33.5t83.5 -91.5t29.5 -128t-29.5 -128t-83.5 -92t-126 -34t-126 34zM372 80.5q36 25.5 55 68.5t19 93t-19 92.5t-55 68t-86 25.5t-86.5 -25.5t-55.5 -68t-19 -92.5t19 -93t55.5 -68.5t86.5 -25.5
t86 25.5zM117 700h78l148 -144h-57z" />
    <glyph glyph-name="oacute" unicode="&#xf3;" horiz-adv-x="572" 
d="M160 22q-54 34 -83.5 92t-29.5 128t29.5 128t83.5 91.5t126 33.5t126 -33.5t83.5 -91.5t29.5 -128t-29.5 -128t-83.5 -92t-126 -34t-126 34zM372 80.5q36 25.5 55 68.5t19 93t-19 92.5t-55 68t-86 25.5t-86.5 -25.5t-55.5 -68t-19 -92.5t19 -93t55.5 -68.5t86.5 -25.5
t86 25.5zM229 556l148 144h78l-169 -144h-57z" />
    <glyph glyph-name="ocircumflex" unicode="&#xf4;" horiz-adv-x="572" 
d="M160 22q-54 34 -83.5 92t-29.5 128t29.5 128t83.5 91.5t126 33.5t126 -33.5t83.5 -91.5t29.5 -128t-29.5 -128t-83.5 -92t-126 -34t-126 34zM372 80.5q36 25.5 55 68.5t19 93t-19 92.5t-55 68t-86 25.5t-86.5 -25.5t-55.5 -68t-19 -92.5t19 -93t55.5 -68.5t86.5 -25.5
t86 25.5zM285 662l-80 -106h-51l95 144h72l98 -144h-51z" />
    <glyph glyph-name="otilde" unicode="&#xf5;" horiz-adv-x="572" 
d="M160 22q-54 34 -83.5 92t-29.5 128t29.5 128t83.5 91.5t126 33.5t126 -33.5t83.5 -91.5t29.5 -128t-29.5 -128t-83.5 -92t-126 -34t-126 34zM372 80.5q36 25.5 55 68.5t19 93t-19 92.5t-55 68t-86 25.5t-86.5 -25.5t-55.5 -68t-19 -92.5t19 -93t55.5 -68.5t86.5 -25.5
t86 25.5zM247.5 636.5q-9.5 9.5 -24.5 9.5q-21 0 -34.5 -21.5t-13.5 -64.5h-45q0 60 25.5 97t71.5 37q26 0 41.5 -13.5t33.5 -39.5q15 -21 24 -30t24 -9q21 0 34.5 21.5t13.5 64.5h45q0 -60 -25.5 -97t-71.5 -37q-27 0 -42.5 13.5t-33.5 39.5q-13 20 -22.5 29.5z" />
    <glyph glyph-name="odieresis" unicode="&#xf6;" horiz-adv-x="572" 
d="M160 22q-54 34 -83.5 92t-29.5 128t29.5 128t83.5 91.5t126 33.5t126 -33.5t83.5 -91.5t29.5 -128t-29.5 -128t-83.5 -92t-126 -34t-126 34zM372 80.5q36 25.5 55 68.5t19 93t-19 92.5t-55 68t-86 25.5t-86.5 -25.5t-55.5 -68t-19 -92.5t19 -93t55.5 -68.5t86.5 -25.5
t86 25.5zM150 571q-14 14 -14 33t14 32.5t33 13.5t32.5 -13.5t13.5 -32.5t-13.5 -33t-32.5 -14t-33 14zM356 571q-14 14 -14 33t14 32.5t33 13.5t33 -13.5t14 -32.5t-14 -33t-33 -14t-33 14z" />
    <glyph glyph-name="divide" unicode="&#xf7;" horiz-adv-x="511" 
d="M223 493.5q-13 13.5 -13 32.5t13 32.5t32 13.5q20 0 33.5 -13.5t13.5 -32.5t-14 -32.5t-33 -13.5t-32 13.5zM29 363h453v-52h-453v52zM223 111.5q-13 13.5 -13 32.5t13 32.5t32 13.5t33 -13.5t14 -32.5t-14 -32.5t-33 -13.5t-32 13.5z" />
    <glyph glyph-name="oslash" unicode="&#xf8;" horiz-adv-x="572" 
d="M507 344q18 -47 18 -102q0 -70 -29.5 -128t-83.5 -92t-126 -34q-81 0 -142 45l-26 -33h-54l48 61q-32 35 -48.5 81.5t-16.5 99.5q0 70 29.5 128t83.5 91.5t126 33.5q79 0 137 -41l23 29h54l-45 -57q34 -35 52 -82zM160 121l218 277q-38 30 -92 30q-50 0 -86.5 -25.5
t-55.5 -68t-19 -92.5q0 -69 35 -121zM372 80.5q36 25.5 55 68.5t19 93q0 73 -38 125l-220 -278q42 -34 98 -34q50 0 86 25.5z" />
    <glyph glyph-name="ugrave" unicode="&#xf9;" horiz-adv-x="551" 
d="M401 68q-30 -34 -75.5 -57t-96.5 -23q-154 0 -154 154v341h75v-318q0 -60 27.5 -85t80.5 -25q42 0 81.5 21t61.5 52v355h75v-483h-75v68zM106 700h78l148 -144h-57z" />
    <glyph glyph-name="uacute" unicode="&#xfa;" horiz-adv-x="551" 
d="M401 68q-30 -34 -75.5 -57t-96.5 -23q-154 0 -154 154v341h75v-318q0 -60 27.5 -85t80.5 -25q42 0 81.5 21t61.5 52v355h75v-483h-75v68zM218 556l148 144h78l-169 -144h-57z" />
    <glyph glyph-name="ucircumflex" unicode="&#xfb;" horiz-adv-x="551" 
d="M401 68q-30 -34 -75.5 -57t-96.5 -23q-154 0 -154 154v341h75v-318q0 -60 27.5 -85t80.5 -25q42 0 81.5 21t61.5 52v355h75v-483h-75v68zM274 662l-80 -106h-51l95 144h72l98 -144h-51z" />
    <glyph glyph-name="udieresis" unicode="&#xfc;" horiz-adv-x="551" 
d="M401 68q-30 -34 -75.5 -57t-96.5 -23q-154 0 -154 154v341h75v-318q0 -60 27.5 -85t80.5 -25q42 0 81.5 21t61.5 52v355h75v-483h-75v68zM141 571q-14 14 -14 33t14 32.5t33 13.5t32.5 -13.5t13.5 -32.5t-13.5 -33t-32.5 -14t-33 14zM347 571q-14 14 -14 33t14 32.5
t33 13.5t33 -13.5t14 -32.5t-14 -33t-33 -14t-33 14z" />
    <glyph glyph-name="yacute" unicode="&#xfd;" horiz-adv-x="490" 
d="M101 -129q26 0 43 11t29 40l32 73l-202 488h81l161 -396l160 396h82l-242 -581q-21 -51 -56.5 -74t-85.5 -24q-30 0 -55 7l12 68q18 -8 41 -8zM188 556l148 144h78l-169 -144h-57z" />
    <glyph glyph-name="thorn" unicode="&#xfe;" horiz-adv-x="574" 
d="M150 -184h-75v851h75v-256q27 38 70 61t93 23q63 0 112 -30.5t76 -88t27 -134.5t-27 -134.5t-76 -88.5t-112 -31q-49 0 -91.5 22t-71.5 63v-257zM407 376q-42 52 -113 52q-43 0 -83.5 -22.5t-60.5 -54.5v-218q20 -33 60.5 -55.5t83.5 -22.5q71 0 113 52.5t42 134.5
t-42 134z" />
    <glyph glyph-name="ydieresis" unicode="&#xff;" horiz-adv-x="490" 
d="M101 -129q26 0 43 11t29 40l32 73l-202 488h81l161 -396l160 396h82l-242 -581q-21 -51 -56.5 -74t-85.5 -24q-30 0 -55 7l12 68q18 -8 41 -8zM109 571q-14 14 -14 33t14 32.5t33 13.5t32.5 -13.5t13.5 -32.5t-13.5 -33t-32.5 -14t-33 14zM315 571q-14 14 -14 33t14 32.5
t33 13.5t33 -13.5t14 -32.5t-14 -33t-33 -14t-33 14z" />
    <glyph glyph-name="dotlessi" unicode="&#x131;" horiz-adv-x="225" 
d="M75 483h75v-483h-75v483z" />
    <glyph glyph-name="OE" unicode="&#x152;" horiz-adv-x="1105" 
d="M613 120q-36 -63 -100.5 -97.5t-137.5 -34.5q-95 0 -169 45t-114.5 123.5t-40.5 176.5t40.5 176.5t114.5 123t169 44.5q73 0 137.5 -34t100.5 -97v121h438v-74h-355v-215h348v-74h-348v-230h355v-74h-438v120zM523.5 562q-60.5 41 -139.5 41q-75 0 -131 -34.5t-86 -96
t-30 -139.5t30 -139.5t86 -96.5t131 -35q79 0 139.5 41.5t89.5 119.5v220q-29 78 -89.5 119z" />
    <glyph glyph-name="oe" unicode="&#x153;" horiz-adv-x="962" 
d="M577.5 98q46.5 -48 121.5 -48q42 0 81.5 16t68.5 45l36 -49q-76 -74 -192 -74q-83 0 -133 41.5t-75 96.5q-25 -55 -72 -96.5t-127 -41.5q-72 0 -126 34t-83.5 92t-29.5 128t29.5 128t83.5 91.5t126 33.5q80 0 128.5 -42.5t71.5 -95.5q22 52 71.5 95t126.5 43
q71 0 123.5 -34t80.5 -93t28 -132v-19h-390q5 -71 51.5 -119zM824 348q-18 37 -53.5 61t-87.5 24q-49 0 -84 -24t-53.5 -61t-20.5 -76h318q-1 39 -19 76zM200.5 403q-36.5 -25 -56 -67.5t-19.5 -93.5q0 -52 19.5 -94.5t56 -68t85.5 -25.5t85.5 25.5t55.5 68t19 94.5
q0 51 -19 93.5t-55.5 67.5t-85.5 25t-85.5 -25z" />
    <glyph glyph-name="Scaron" unicode="&#x160;" horiz-adv-x="586" 
d="M153 867h51l83 -106l80 106h51l-95 -144h-72zM87 157q37 -41 91 -68t119 -27q81 0 119 34.5t38 80.5q0 37 -22.5 60.5t-55.5 36.5t-91 29q-74 19 -118.5 37t-76 54.5t-31.5 97.5q0 54 30 96t82 65.5t117 23.5q149 0 237 -93l-50 -61q-36 40 -86 60t-107 20
q-60 0 -98.5 -29.5t-38.5 -76.5q0 -31 21.5 -51.5t52.5 -32t88 -26.5q74 -20 120.5 -39.5t79.5 -59t33 -104.5q0 -52 -25 -96.5t-80.5 -72t-140.5 -27.5q-83 0 -147.5 28.5t-108.5 77.5z" />
    <glyph glyph-name="scaron" unicode="&#x161;" horiz-adv-x="465" 
d="M72 118q25 -29 68.5 -49t90.5 -20q54 0 84 23t30 60q0 25 -16.5 40.5t-40.5 23.5t-67 19q-56 13 -90.5 26t-59.5 41t-25 74q0 38 21.5 69.5t62 50.5t96.5 19q109 0 179 -70l-35 -52q-23 27 -61 44t-83 17q-49 0 -78 -21.5t-29 -54.5q0 -31 28.5 -45t89.5 -29
q56 -13 92.5 -27t62.5 -43.5t26 -79.5q0 -64 -50 -105t-140 -41q-123 0 -195 76zM96 700h51l83 -106l80 106h51l-95 -144h-72z" />
    <glyph glyph-name="Ydieresis" unicode="&#x178;" horiz-adv-x="626" 
d="M179 738q-14 14 -14 33t14 32.5t33 13.5t32.5 -13.5t13.5 -32.5t-13.5 -33t-32.5 -14t-33 14zM385 738q-14 14 -14 33t14 32.5t33 13.5t33 -13.5t14 -32.5t-14 -33t-33 -14t-33 14zM272 282l-263 385h97l207 -310l207 310h97l-262 -385v-282h-83v282z" />
    <glyph glyph-name="Zcaron" unicode="&#x17d;" horiz-adv-x="585" 
d="M157 867h51l83 -106l80 106h51l-95 -144h-72zM48 69l375 524h-375v74h481v-69l-375 -524h382v-74h-488v69z" />
    <glyph glyph-name="zcaron" unicode="&#x17e;" horiz-adv-x="472" 
d="M52 58l266 359h-266v66h364v-57l-268 -361h272v-65h-368v58zM98 700h51l83 -106l80 106h51l-95 -144h-72z" />
    <glyph glyph-name="florin" unicode="&#x192;" horiz-adv-x="431" 
d="M117 254h-68v68h82l46 204q15 70 62 110.5t112 40.5q30 0 52.5 -8t41.5 -28l-37 -61q-18 23 -50 23q-36 0 -63 -24.5t-37 -67.5l-42 -189h139v-68h-154l-92 -415h-84z" />
    <glyph glyph-name="uni0237" unicode="&#x237;" horiz-adv-x="225" 
d="M-36 -126q12 -5 36 -5q75 0 75 84v530h75v-530q0 -71 -37 -110t-105 -39q-32 0 -54 7z" />
    <glyph glyph-name="circumflex" unicode="&#x2c6;" horiz-adv-x="265" 
d="M131 662l-80 -106h-51l95 144h72l98 -144h-51z" />
    <glyph glyph-name="caron" unicode="&#x2c7;" horiz-adv-x="265" 
d="M0 700h51l83 -106l80 106h51l-95 -144h-72z" />
    <glyph glyph-name="ring" unicode="&#x2da;" horiz-adv-x="196" 
d="M29 711q29 29 69 29t69 -29t29 -70q0 -40 -28.5 -69t-69.5 -29q-40 0 -69 29t-29 69q0 41 29 70zM139.5 683q-16.5 17 -41.5 17q-24 0 -41 -17t-17 -42q0 -24 17 -41.5t41 -17.5t41 17.5t17 41.5q0 25 -16.5 42z" />
    <glyph glyph-name="tilde" unicode="&#x2dc;" horiz-adv-x="313" 
d="M117.5 636.5q-9.5 9.5 -24.5 9.5q-21 0 -34.5 -21.5t-13.5 -64.5h-45q0 60 25.5 97t71.5 37q26 0 41.5 -13.5t33.5 -39.5q15 -21 24 -30t24 -9q21 0 34.5 21.5t13.5 64.5h45q0 -60 -25.5 -97t-71.5 -37q-27 0 -42.5 13.5t-33.5 39.5q-13 20 -22.5 29.5z" />
    <glyph glyph-name="endash" unicode="&#x2013;" horiz-adv-x="593" 
d="M30 275h533v-66h-533v66z" />
    <glyph glyph-name="emdash" unicode="&#x2014;" horiz-adv-x="833" 
d="M30 275h773v-66h-773v66z" />
    <glyph glyph-name="quoteleft" unicode="&#x2018;" 
d="M165 647q-24 -16 -42.5 -42.5t-21.5 -50.5l13 1q21 0 35 -14.5t14 -36.5t-15.5 -37.5t-37.5 -15.5q-26 0 -44.5 20.5t-18.5 55.5q0 44 22.5 84t58.5 66z" />
    <glyph glyph-name="quoteright" unicode="&#x2019;" 
d="M57 481q24 16 43 42.5t22 50.5q-4 -2 -14 -2q-21 0 -34.5 14.5t-13.5 36.5t15.5 38t37.5 16q26 0 44.5 -20.5t18.5 -55.5q0 -44 -23 -84.5t-59 -66.5z" />
    <glyph glyph-name="quotesinglbase" unicode="&#x201a;" 
d="M57 -96q25 16 43.5 42.5t21.5 50.5q-4 -2 -14 -2q-21 0 -34.5 14.5t-13.5 36.5t15.5 38t37.5 16q26 0 44.5 -20.5t18.5 -55.5q0 -44 -23 -84.5t-59 -66.5z" />
    <glyph glyph-name="quotedblleft" unicode="&#x201c;" horiz-adv-x="390" 
d="M172 647q-24 -16 -43 -42.5t-21 -50.5l13 1q21 0 34.5 -14.5t13.5 -36.5t-15.5 -37.5t-37.5 -15.5q-26 0 -44 20.5t-18 55.5q0 44 22.5 84t58.5 66zM332 647q-24 -16 -42.5 -42.5t-21.5 -50.5l13 1q21 0 35 -14.5t14 -36.5t-16 -37.5t-38 -15.5q-26 0 -44 20.5t-18 55.5
q0 44 22.5 84t58.5 66z" />
    <glyph glyph-name="quotedblright" unicode="&#x201d;" horiz-adv-x="390" 
d="M57 481q24 16 43 42.5t22 50.5q-4 -2 -14 -2q-21 0 -34.5 14.5t-13.5 36.5t15.5 38t37.5 16q26 0 44.5 -20.5t18.5 -55.5q0 -44 -23 -84.5t-59 -66.5zM218 481q24 16 42.5 42.5t21.5 50.5q-4 -2 -13 -2q-21 0 -35 14.5t-14 36.5t15.5 38t37.5 16q26 0 44.5 -20.5
t18.5 -55.5q0 -44 -23 -84.5t-58 -66.5z" />
    <glyph glyph-name="quotedblbase" unicode="&#x201e;" horiz-adv-x="390" 
d="M57 -96q25 16 43.5 42.5t21.5 50.5q-4 -2 -14 -2q-21 0 -34.5 14.5t-13.5 36.5t15.5 38t37.5 16q26 0 44.5 -20.5t18.5 -55.5q0 -44 -23 -84.5t-59 -66.5zM218 -96q24 16 42.5 42.5t21.5 50.5q-4 -2 -13 -2q-21 0 -35 14.5t-14 36.5t15.5 38t37.5 16q26 0 44.5 -20.5
t18.5 -55.5q0 -44 -23 -84.5t-58 -66.5z" />
    <glyph glyph-name="dagger" unicode="&#x2020;" horiz-adv-x="263" 
d="M155 327h-48l5 208l-89 -4v43l89 -3l-5 106h48l-4 -106l89 3v-43l-89 4z" />
    <glyph glyph-name="daggerdbl" unicode="&#x2021;" horiz-adv-x="263" 
d="M151 535v-213l89 4v-43l-89 3l4 -106h-48l4 106l-88 -3v43l88 -4v213l-88 -4v43l88 -3l-4 106h48l-4 -106l89 3v-43z" />
    <glyph glyph-name="bullet" unicode="&#x2022;" horiz-adv-x="358" 
d="M104 166.5q-32 31.5 -32 75.5t32 76t76 32t76 -32t32 -76t-32 -75.5t-76 -31.5t-76 31.5z" />
    <glyph glyph-name="ellipsis" unicode="&#x2026;" horiz-adv-x="690" 
d="M76 6.5q-16 16.5 -16 38.5q0 23 16 39t38 16q23 0 39 -16t16 -39q0 -22 -16.5 -38.5t-38.5 -16.5t-38 16.5zM306 6.5q-16 16.5 -16 38.5q0 23 16 39t38 16q23 0 39.5 -16.5t16.5 -38.5t-17 -38.5t-39 -16.5t-38 16.5zM536.5 6.5q-16.5 16.5 -16.5 38.5q0 23 16.5 39
t38.5 16q23 0 39 -16t16 -39q0 -22 -16.5 -38.5t-38.5 -16.5t-38.5 16.5z" />
    <glyph glyph-name="perthousand" unicode="&#x2030;" horiz-adv-x="1083" 
d="M107.5 369q-36.5 21 -56.5 58.5t-20 83.5q0 47 20.5 84.5t56.5 59.5t83 22t84 -22t57.5 -59.5t20.5 -84.5q0 -46 -20.5 -83.5t-57.5 -58.5t-84 -21t-83.5 21zM128 0l426 667h55l-427 -667h-54zM119 596q-28 -34 -28 -85q0 -50 28 -83t72 -33q45 0 73.5 33t28.5 83
q0 51 -28.5 85t-73.5 34q-44 0 -72 -34zM455.5 9q-36.5 21 -56.5 58.5t-20 83.5q0 47 20.5 84.5t56.5 59.5t83 22t83.5 -22t57 -59.5t20.5 -84.5q0 -46 -20.5 -83.5t-57 -58.5t-83.5 -21t-83.5 21zM807.5 9q-36.5 21 -56.5 58.5t-20 83.5q0 47 20.5 84.5t56.5 59.5t83 22
t83.5 -22t57 -59.5t20.5 -84.5q0 -46 -20.5 -83.5t-57 -58.5t-83.5 -21t-83.5 21zM466 236q-28 -34 -28 -85q0 -50 28 -83t73 -33t73.5 33t28.5 83q0 51 -28.5 85t-73.5 34t-73 -34zM819 236.5q-28 -33.5 -28 -85.5q0 -50 28 -83t72 -33q45 0 73.5 33t28.5 83q0 51 -28.5 85
t-73.5 34q-44 0 -72 -33.5z" />
    <glyph glyph-name="guilsinglleft" unicode="&#x2039;" horiz-adv-x="295" 
d="M30 243l160 177h75l-160 -177l160 -180h-75z" />
    <glyph glyph-name="guilsinglright" unicode="&#x203a;" horiz-adv-x="295" 
d="M30 63l160 180l-160 177h75l160 -177l-160 -180h-75z" />
    <glyph glyph-name="fraction" unicode="&#x2044;" horiz-adv-x="138" 
d="M-172 0l426 667h56l-427 -667h-55z" />
    <glyph glyph-name="Euro" unicode="&#x20ac;" horiz-adv-x="695" 
d="M520.5 88.5q49.5 26.5 78.5 70.5l70 -39q-97 -132 -254 -132q-79 0 -147.5 31t-116.5 87t-67 131h-53v52h44q-3 21 -3 44q0 24 3 46h-44v52h54q19 74 67 130t116 86.5t147 30.5q159 0 254 -132l-70 -39q-29 43 -78.5 70t-105.5 27q-85 0 -150 -46.5t-91 -126.5h302v-52
h-315q-3 -22 -3 -46q0 -23 3 -44h315v-52h-302q26 -80 91 -127.5t150 -47.5q56 0 105.5 26.5z" />
    <glyph glyph-name="trademark" unicode="&#x2122;" horiz-adv-x="454" 
d="M107 447h-28v194h-62v26h152v-26h-62v-194zM391 629l-75 -182h-8l-75 182v-182h-28v220h43l64 -160l64 160h43v-220h-28v182z" />
    <glyph glyph-name="minus" unicode="&#x2212;" horiz-adv-x="499" 
d="M29 363h441v-52h-441v52z" />
    <glyph glyph-name="glyph224" horiz-adv-x="235" 
d="M115 322l-66 -69l-35 37l108 110h53v-400h-60v322z" />
    <glyph glyph-name="glyph225" horiz-adv-x="388" 
d="M50 45q124 88 176.5 140.5t52.5 98.5q0 36 -25 54.5t-60 18.5q-36 0 -65.5 -15t-46.5 -37l-33 38q24 31 63.5 47t83.5 16q60 0 101.5 -30.5t41.5 -87.5q0 -56 -50 -111.5t-151 -127.5h203v-49h-291v45z" />
    <glyph glyph-name="glyph226" horiz-adv-x="388" 
d="M102 11q-39 18 -60 47l32 38q20 -25 51 -39.5t65 -14.5q43 0 68 19t25 51q0 36 -28.5 52.5t-75.5 16.5q-34 0 -40 -1v50q7 -1 39 -1q45 0 71.5 15.5t26.5 48.5q0 30 -25.5 47t-63.5 17q-64 0 -109 -49l-31 36q25 28 61.5 45t83.5 17q64 0 104 -29t40 -78q0 -40 -27 -63.5
t-62 -29.5q34 -3 65 -28t31 -69q0 -52 -41 -84t-110 -32q-51 0 -90 18z" />
    <glyph glyph-name="glyph227" horiz-adv-x="388" 
d="M294 0h-59v100h-196v44l172 256h83v-251h58v-49h-58v-100zM99 149h136v198z" />
    <hkern g1="C,Ccedilla"
	g2="V"
	k="2" />
    <hkern g1="C,Ccedilla"
	g2="W"
	k="3" />
    <hkern g1="C,Ccedilla"
	g2="Y,Yacute,Ydieresis"
	k="16" />
    <hkern g1="C,Ccedilla"
	g2="plus,divide,minus"
	k="6" />
    <hkern g1="C,Ccedilla"
	g2="question"
	k="3" />
    <hkern g1="C,Ccedilla"
	g2="A,Agrave,Aacute,Acircumflex,Atilde,Adieresis,Aring,AE"
	k="3" />
    <hkern g1="D,O,Q,Eth,Ograve,Oacute,Ocircumflex,Otilde,Odieresis,Oslash,Thorn"
	g2="T"
	k="27" />
    <hkern g1="D,O,Q,Eth,Ograve,Oacute,Ocircumflex,Otilde,Odieresis,Oslash,Thorn"
	g2="V"
	k="20" />
    <hkern g1="D,O,Q,Eth,Ograve,Oacute,Ocircumflex,Otilde,Odieresis,Oslash,Thorn"
	g2="W"
	k="20" />
    <hkern g1="D,O,Q,Eth,Ograve,Oacute,Ocircumflex,Otilde,Odieresis,Oslash,Thorn"
	g2="Y,Yacute,Ydieresis"
	k="40" />
    <hkern g1="D,O,Q,Eth,Ograve,Oacute,Ocircumflex,Otilde,Odieresis,Oslash,Thorn"
	g2="question"
	k="16" />
    <hkern g1="D,O,Q,Eth,Ograve,Oacute,Ocircumflex,Otilde,Odieresis,Oslash,Thorn"
	g2="quotedbl,quotesingle,registered,quoteleft,quoteright,quotedblleft,quotedblright,trademark"
	k="10" />
    <hkern g1="D,O,Q,Eth,Ograve,Oacute,Ocircumflex,Otilde,Odieresis,Oslash,Thorn"
	g2="J"
	k="20" />
    <hkern g1="D,O,Q,Eth,Ograve,Oacute,Ocircumflex,Otilde,Odieresis,Oslash,Thorn"
	g2="A,Agrave,Aacute,Acircumflex,Atilde,Adieresis,Aring,AE"
	k="37" />
    <hkern g1="D,O,Q,Eth,Ograve,Oacute,Ocircumflex,Otilde,Odieresis,Oslash,Thorn"
	g2="X"
	k="30" />
    <hkern g1="D,O,Q,Eth,Ograve,Oacute,Ocircumflex,Otilde,Odieresis,Oslash,Thorn"
	g2="Z,Zcaron"
	k="17" />
    <hkern g1="D,O,Q,Eth,Ograve,Oacute,Ocircumflex,Otilde,Odieresis,Oslash,Thorn"
	g2="comma,period,quotesinglbase,quotedblbase,ellipsis"
	k="27" />
    <hkern g1="F"
	g2="J"
	k="59" />
    <hkern g1="F"
	g2="A,Agrave,Aacute,Acircumflex,Atilde,Adieresis,Aring,AE"
	k="36" />
    <hkern g1="F"
	g2="comma,period,quotesinglbase,quotedblbase,ellipsis"
	k="50" />
    <hkern g1="F"
	g2="ampersand"
	k="6" />
    <hkern g1="K"
	g2="C,G,O,Q,Ccedilla,Ograve,Oacute,Ocircumflex,Otilde,Odieresis,Oslash,OE"
	k="54" />
    <hkern g1="K"
	g2="Y,Yacute,Ydieresis"
	k="21" />
    <hkern g1="K"
	g2="plus,divide,minus"
	k="70" />
    <hkern g1="K"
	g2="u,mu,uacute"
	k="20" />
    <hkern g1="K"
	g2="v"
	k="60" />
    <hkern g1="K"
	g2="w"
	k="40" />
    <hkern g1="K"
	g2="y,yacute,ydieresis"
	k="60" />
    <hkern g1="K"
	g2="f"
	k="26" />
    <hkern g1="K"
	g2="t"
	k="39" />
    <hkern g1="K"
	g2="a,aacute,ae"
	k="17" />
    <hkern g1="K"
	g2="c,d,e,g,o,q,cent,ccedilla,eacute,oacute,oe"
	k="34" />
    <hkern g1="K"
	g2="hyphen,periodcentered,endash,emdash"
	k="50" />
    <hkern g1="K"
	g2="x"
	k="26" />
    <hkern g1="L"
	g2="C,G,O,Q,Ccedilla,Ograve,Oacute,Ocircumflex,Otilde,Odieresis,Oslash,OE"
	k="34" />
    <hkern g1="L"
	g2="T"
	k="100" />
    <hkern g1="L"
	g2="U,Ugrave,Uacute,Ucircumflex,Udieresis"
	k="27" />
    <hkern g1="L"
	g2="V"
	k="90" />
    <hkern g1="L"
	g2="W"
	k="66" />
    <hkern g1="L"
	g2="Y,Yacute,Ydieresis"
	k="123" />
    <hkern g1="L"
	g2="asterisk"
	k="174" />
    <hkern g1="L"
	g2="dagger"
	k="130" />
    <hkern g1="L"
	g2="daggerdbl"
	k="101" />
    <hkern g1="L"
	g2="plus,divide,minus"
	k="77" />
    <hkern g1="L"
	g2="question"
	k="114" />
    <hkern g1="L"
	g2="quotedbl,quotesingle,registered,quoteleft,quoteright,quotedblleft,quotedblright,trademark"
	k="122" />
    <hkern g1="L"
	g2="u,mu,uacute"
	k="14" />
    <hkern g1="L"
	g2="v"
	k="57" />
    <hkern g1="L"
	g2="w"
	k="37" />
    <hkern g1="L"
	g2="y,yacute,ydieresis"
	k="57" />
    <hkern g1="L"
	g2="t"
	k="33" />
    <hkern g1="L"
	g2="ampersand"
	k="7" />
    <hkern g1="L"
	g2="a,aacute,ae"
	k="14" />
    <hkern g1="L"
	g2="c,d,e,g,o,q,cent,ccedilla,eacute,oacute,oe"
	k="21" />
    <hkern g1="P"
	g2="Y,Yacute,Ydieresis"
	k="3" />
    <hkern g1="P"
	g2="J"
	k="109" />
    <hkern g1="P"
	g2="A,Agrave,Aacute,Acircumflex,Atilde,Adieresis,Aring,AE"
	k="77" />
    <hkern g1="P"
	g2="X"
	k="9" />
    <hkern g1="P"
	g2="comma,period,quotesinglbase,quotedblbase,ellipsis"
	k="94" />
    <hkern g1="P"
	g2="ampersand"
	k="26" />
    <hkern g1="P"
	g2="a,aacute,ae"
	k="20" />
    <hkern g1="P"
	g2="c,d,e,g,o,q,cent,ccedilla,eacute,oacute,oe"
	k="13" />
    <hkern g1="P"
	g2="hyphen,periodcentered,endash,emdash"
	k="34" />
    <hkern g1="R"
	g2="T"
	k="10" />
    <hkern g1="R"
	g2="V"
	k="10" />
    <hkern g1="R"
	g2="Y,Yacute,Ydieresis"
	k="16" />
    <hkern g1="R"
	g2="quotedbl,quotesingle,registered,quoteleft,quoteright,quotedblleft,quotedblright,trademark"
	k="3" />
    <hkern g1="R"
	g2="ampersand"
	k="3" />
    <hkern g1="R"
	g2="a,aacute,ae"
	k="20" />
    <hkern g1="R"
	g2="c,d,e,g,o,q,cent,ccedilla,eacute,oacute,oe"
	k="30" />
    <hkern g1="R"
	g2="s,scaron"
	k="6" />
    <hkern g1="T"
	g2="C,G,O,Q,Ccedilla,Ograve,Oacute,Ocircumflex,Otilde,Odieresis,Oslash,OE"
	k="27" />
    <hkern g1="T"
	g2="dollar,three,five,eight,S,Scaron"
	k="3" />
    <hkern g1="T"
	g2="plus,divide,minus"
	k="50" />
    <hkern g1="T"
	g2="u,mu,uacute"
	k="85" />
    <hkern g1="T"
	g2="v"
	k="56" />
    <hkern g1="T"
	g2="w"
	k="56" />
    <hkern g1="T"
	g2="y,yacute,ydieresis"
	k="56" />
    <hkern g1="T"
	g2="J"
	k="83" />
    <hkern g1="T"
	g2="f"
	k="31" />
    <hkern g1="T"
	g2="A,Agrave,Aacute,Acircumflex,Atilde,Adieresis,Aring,AE"
	k="67" />
    <hkern g1="T"
	g2="comma,period,quotesinglbase,quotedblbase,ellipsis"
	k="93" />
    <hkern g1="T"
	g2="ampersand"
	k="57" />
    <hkern g1="T"
	g2="a,aacute,ae"
	k="95" />
    <hkern g1="T"
	g2="c,d,e,g,o,q,cent,ccedilla,eacute,oacute,oe"
	k="115" />
    <hkern g1="T"
	g2="hyphen,periodcentered,endash,emdash"
	k="60" />
    <hkern g1="T"
	g2="x"
	k="66" />
    <hkern g1="T"
	g2="s,scaron"
	k="91" />
    <hkern g1="T"
	g2="colon,semicolon"
	k="50" />
    <hkern g1="T"
	g2="m,n,p,r,z,ntilde,dotlessi"
	k="85" />
    <hkern g1="J,U,Ugrave,Uacute,Ucircumflex,Udieresis"
	g2="J"
	k="12" />
    <hkern g1="J,U,Ugrave,Uacute,Ucircumflex,Udieresis"
	g2="A,Agrave,Aacute,Acircumflex,Atilde,Adieresis,Aring,AE"
	k="26" />
    <hkern g1="J,U,Ugrave,Uacute,Ucircumflex,Udieresis"
	g2="comma,period,quotesinglbase,quotedblbase,ellipsis"
	k="30" />
    <hkern g1="V"
	g2="C,G,O,Q,Ccedilla,Ograve,Oacute,Ocircumflex,Otilde,Odieresis,Oslash,OE"
	k="20" />
    <hkern g1="V"
	g2="plus,divide,minus"
	k="30" />
    <hkern g1="V"
	g2="u,mu,uacute"
	k="42" />
    <hkern g1="V"
	g2="v"
	k="13" />
    <hkern g1="V"
	g2="w"
	k="6" />
    <hkern g1="V"
	g2="y,yacute,ydieresis"
	k="6" />
    <hkern g1="V"
	g2="J"
	k="93" />
    <hkern g1="V"
	g2="f"
	k="23" />
    <hkern g1="V"
	g2="t"
	k="13" />
    <hkern g1="V"
	g2="A,Agrave,Aacute,Acircumflex,Atilde,Adieresis,Aring,AE"
	k="54" />
    <hkern g1="V"
	g2="comma,period,quotesinglbase,quotedblbase,ellipsis"
	k="90" />
    <hkern g1="V"
	g2="ampersand"
	k="29" />
    <hkern g1="V"
	g2="a,aacute,ae"
	k="63" />
    <hkern g1="V"
	g2="c,d,e,g,o,q,cent,ccedilla,eacute,oacute,oe"
	k="60" />
    <hkern g1="V"
	g2="hyphen,periodcentered,endash,emdash"
	k="53" />
    <hkern g1="V"
	g2="x"
	k="23" />
    <hkern g1="V"
	g2="s,scaron"
	k="39" />
    <hkern g1="V"
	g2="m,n,p,r,z,ntilde,dotlessi"
	k="42" />
    <hkern g1="W"
	g2="C,G,O,Q,Ccedilla,Ograve,Oacute,Ocircumflex,Otilde,Odieresis,Oslash,OE"
	k="20" />
    <hkern g1="W"
	g2="plus,divide,minus"
	k="3" />
    <hkern g1="W"
	g2="u,mu,uacute"
	k="30" />
    <hkern g1="W"
	g2="v"
	k="3" />
    <hkern g1="W"
	g2="y,yacute,ydieresis"
	k="3" />
    <hkern g1="W"
	g2="J"
	k="38" />
    <hkern g1="W"
	g2="f"
	k="13" />
    <hkern g1="W"
	g2="t"
	k="13" />
    <hkern g1="W"
	g2="A,Agrave,Aacute,Acircumflex,Atilde,Adieresis,Aring,AE"
	k="47" />
    <hkern g1="W"
	g2="comma,period,quotesinglbase,quotedblbase,ellipsis"
	k="67" />
    <hkern g1="W"
	g2="ampersand"
	k="20" />
    <hkern g1="W"
	g2="a,aacute,ae"
	k="40" />
    <hkern g1="W"
	g2="c,d,e,g,o,q,cent,ccedilla,eacute,oacute,oe"
	k="40" />
    <hkern g1="W"
	g2="hyphen,periodcentered,endash,emdash"
	k="33" />
    <hkern g1="W"
	g2="x"
	k="23" />
    <hkern g1="W"
	g2="s,scaron"
	k="19" />
    <hkern g1="W"
	g2="m,n,p,r,z,ntilde,dotlessi"
	k="30" />
    <hkern g1="X"
	g2="C,G,O,Q,Ccedilla,Ograve,Oacute,Ocircumflex,Otilde,Odieresis,Oslash,OE"
	k="30" />
    <hkern g1="X"
	g2="plus,divide,minus"
	k="77" />
    <hkern g1="X"
	g2="v"
	k="37" />
    <hkern g1="X"
	g2="w"
	k="44" />
    <hkern g1="X"
	g2="y,yacute,ydieresis"
	k="37" />
    <hkern g1="X"
	g2="f"
	k="30" />
    <hkern g1="X"
	g2="t"
	k="30" />
    <hkern g1="X"
	g2="hyphen,periodcentered,endash,emdash"
	k="43" />
    <hkern g1="Y,Yacute,Ydieresis"
	g2="C,G,O,Q,Ccedilla,Ograve,Oacute,Ocircumflex,Otilde,Odieresis,Oslash,OE"
	k="40" />
    <hkern g1="Y,Yacute,Ydieresis"
	g2="dollar,three,five,eight,S,Scaron"
	k="20" />
    <hkern g1="Y,Yacute,Ydieresis"
	g2="plus,divide,minus"
	k="97" />
    <hkern g1="Y,Yacute,Ydieresis"
	g2="u,mu,uacute"
	k="90" />
    <hkern g1="Y,Yacute,Ydieresis"
	g2="v"
	k="60" />
    <hkern g1="Y,Yacute,Ydieresis"
	g2="w"
	k="60" />
    <hkern g1="Y,Yacute,Ydieresis"
	g2="y,yacute,ydieresis"
	k="60" />
    <hkern g1="Y,Yacute,Ydieresis"
	g2="J"
	k="113" />
    <hkern g1="Y,Yacute,Ydieresis"
	g2="f"
	k="49" />
    <hkern g1="Y,Yacute,Ydieresis"
	g2="t"
	k="26" />
    <hkern g1="Y,Yacute,Ydieresis"
	g2="A,Agrave,Aacute,Acircumflex,Atilde,Adieresis,Aring,AE"
	k="63" />
    <hkern g1="Y,Yacute,Ydieresis"
	g2="comma,period,quotesinglbase,quotedblbase,ellipsis"
	k="90" />
    <hkern g1="Y,Yacute,Ydieresis"
	g2="ampersand"
	k="60" />
    <hkern g1="Y,Yacute,Ydieresis"
	g2="a,aacute,ae"
	k="121" />
    <hkern g1="Y,Yacute,Ydieresis"
	g2="c,d,e,g,o,q,cent,ccedilla,eacute,oacute,oe"
	k="127" />
    <hkern g1="Y,Yacute,Ydieresis"
	g2="hyphen,periodcentered,endash,emdash"
	k="116" />
    <hkern g1="Y,Yacute,Ydieresis"
	g2="x"
	k="73" />
    <hkern g1="Y,Yacute,Ydieresis"
	g2="s,scaron"
	k="100" />
    <hkern g1="Y,Yacute,Ydieresis"
	g2="colon,semicolon"
	k="59" />
    <hkern g1="Y,Yacute,Ydieresis"
	g2="m,n,p,r,z,ntilde,dotlessi"
	k="90" />
    <hkern g1="Z,Zcaron"
	g2="C,G,O,Q,Ccedilla,Ograve,Oacute,Ocircumflex,Otilde,Odieresis,Oslash,OE"
	k="17" />
    <hkern g1="Z,Zcaron"
	g2="plus,divide,minus"
	k="64" />
    <hkern g1="G"
	g2="T"
	k="3" />
    <hkern g1="G"
	g2="V"
	k="6" />
    <hkern g1="G"
	g2="W"
	k="3" />
    <hkern g1="G"
	g2="Y,Yacute,Ydieresis"
	k="9" />
    <hkern g1="G"
	g2="question"
	k="6" />
    <hkern g1="G"
	g2="A,Agrave,Aacute,Acircumflex,Atilde,Adieresis,Aring,AE"
	k="3" />
    <hkern g1="G"
	g2="X"
	k="3" />
    <hkern g1="A,Agrave,Aacute,Acircumflex,Atilde,Adieresis,Aring"
	g2="C,G,O,Q,Ccedilla,Ograve,Oacute,Ocircumflex,Otilde,Odieresis,Oslash,OE"
	k="37" />
    <hkern g1="A,Agrave,Aacute,Acircumflex,Atilde,Adieresis,Aring"
	g2="dollar,three,five,eight,S,Scaron"
	k="14" />
    <hkern g1="A,Agrave,Aacute,Acircumflex,Atilde,Adieresis,Aring"
	g2="T"
	k="67" />
    <hkern g1="A,Agrave,Aacute,Acircumflex,Atilde,Adieresis,Aring"
	g2="U,Ugrave,Uacute,Ucircumflex,Udieresis"
	k="26" />
    <hkern g1="A,Agrave,Aacute,Acircumflex,Atilde,Adieresis,Aring"
	g2="V"
	k="54" />
    <hkern g1="A,Agrave,Aacute,Acircumflex,Atilde,Adieresis,Aring"
	g2="W"
	k="47" />
    <hkern g1="A,Agrave,Aacute,Acircumflex,Atilde,Adieresis,Aring"
	g2="Y,Yacute,Ydieresis"
	k="63" />
    <hkern g1="A,Agrave,Aacute,Acircumflex,Atilde,Adieresis,Aring"
	g2="asterisk"
	k="101" />
    <hkern g1="A,Agrave,Aacute,Acircumflex,Atilde,Adieresis,Aring"
	g2="dagger"
	k="97" />
    <hkern g1="A,Agrave,Aacute,Acircumflex,Atilde,Adieresis,Aring"
	g2="daggerdbl"
	k="37" />
    <hkern g1="A,Agrave,Aacute,Acircumflex,Atilde,Adieresis,Aring"
	g2="plus,divide,minus"
	k="47" />
    <hkern g1="A,Agrave,Aacute,Acircumflex,Atilde,Adieresis,Aring"
	g2="question"
	k="77" />
    <hkern g1="A,Agrave,Aacute,Acircumflex,Atilde,Adieresis,Aring"
	g2="quotedbl,quotesingle,registered,quoteleft,quoteright,quotedblleft,quotedblright,trademark"
	k="97" />
    <hkern g1="A,Agrave,Aacute,Acircumflex,Atilde,Adieresis,Aring"
	g2="u,mu,uacute"
	k="12" />
    <hkern g1="A,Agrave,Aacute,Acircumflex,Atilde,Adieresis,Aring"
	g2="v"
	k="20" />
    <hkern g1="A,Agrave,Aacute,Acircumflex,Atilde,Adieresis,Aring"
	g2="w"
	k="17" />
    <hkern g1="A,Agrave,Aacute,Acircumflex,Atilde,Adieresis,Aring"
	g2="y,yacute,ydieresis"
	k="20" />
    <hkern g1="A,Agrave,Aacute,Acircumflex,Atilde,Adieresis,Aring"
	g2="J"
	k="-9" />
    <hkern g1="A,Agrave,Aacute,Acircumflex,Atilde,Adieresis,Aring"
	g2="f"
	k="9" />
    <hkern g1="A,Agrave,Aacute,Acircumflex,Atilde,Adieresis,Aring"
	g2="t"
	k="11" />
    <hkern g1="dollar,five,six,S,Scaron"
	g2="T"
	k="6" />
    <hkern g1="dollar,five,six,S,Scaron"
	g2="Y,Yacute,Ydieresis"
	k="10" />
    <hkern g1="dollar,five,six,S,Scaron"
	g2="A,Agrave,Aacute,Acircumflex,Atilde,Adieresis,Aring,AE"
	k="10" />
    <hkern g1="dollar,five,six,S,Scaron"
	g2="t"
	k="17" />
    <hkern g1="dollar,five,six,S,Scaron"
	g2="x"
	k="13" />
    <hkern g1="dollar,five,six,S,Scaron"
	g2="v"
	k="6" />
    <hkern g1="dollar,five,six,S,Scaron"
	g2="w"
	k="3" />
    <hkern g1="dollar,five,six,S,Scaron"
	g2="y,yacute,ydieresis"
	k="6" />
    <hkern g1="three,eight,B"
	g2="T"
	k="17" />
    <hkern g1="three,eight,B"
	g2="V"
	k="13" />
    <hkern g1="three,eight,B"
	g2="W"
	k="10" />
    <hkern g1="three,eight,B"
	g2="Y,Yacute,Ydieresis"
	k="30" />
    <hkern g1="three,eight,B"
	g2="quotedbl,quotesingle,registered,quoteleft,quoteright,quotedblleft,quotedblright,trademark"
	k="10" />
    <hkern g1="b,o,p,ograve,oslash,thorn"
	g2="T"
	k="115" />
    <hkern g1="b,o,p,ograve,oslash,thorn"
	g2="V"
	k="60" />
    <hkern g1="b,o,p,ograve,oslash,thorn"
	g2="W"
	k="40" />
    <hkern g1="b,o,p,ograve,oslash,thorn"
	g2="Y,Yacute,Ydieresis"
	k="124" />
    <hkern g1="b,o,p,ograve,oslash,thorn"
	g2="question"
	k="46" />
    <hkern g1="b,o,p,ograve,oslash,thorn"
	g2="quotedbl,quotesingle,registered,quoteleft,quoteright,quotedblleft,quotedblright,trademark"
	k="10" />
    <hkern g1="b,o,p,ograve,oslash,thorn"
	g2="comma,period,quotesinglbase,quotedblbase,ellipsis"
	k="7" />
    <hkern g1="b,o,p,ograve,oslash,thorn"
	g2="x"
	k="37" />
    <hkern g1="c,cent,ccedilla"
	g2="T"
	k="81" />
    <hkern g1="c,cent,ccedilla"
	g2="V"
	k="36" />
    <hkern g1="c,cent,ccedilla"
	g2="W"
	k="23" />
    <hkern g1="c,cent,ccedilla"
	g2="Y,Yacute,Ydieresis"
	k="63" />
    <hkern g1="c,cent,ccedilla"
	g2="question"
	k="23" />
    <hkern g1="c,cent,ccedilla"
	g2="quotedbl,quotesingle,registered,quoteleft,quoteright,quotedblleft,quotedblright,trademark"
	k="3" />
    <hkern g1="e,ae,egrave,oe"
	g2="T"
	k="101" />
    <hkern g1="e,ae,egrave,oe"
	g2="V"
	k="53" />
    <hkern g1="e,ae,egrave,oe"
	g2="W"
	k="40" />
    <hkern g1="e,ae,egrave,oe"
	g2="Y,Yacute,Ydieresis"
	k="110" />
    <hkern g1="e,ae,egrave,oe"
	g2="question"
	k="36" />
    <hkern g1="e,ae,egrave,oe"
	g2="quotedbl,quotesingle,registered,quoteleft,quoteright,quotedblleft,quotedblright,trademark"
	k="3" />
    <hkern g1="e,ae,egrave,oe"
	g2="comma,period,quotesinglbase,quotedblbase,ellipsis"
	k="7" />
    <hkern g1="e,ae,egrave,oe"
	g2="asterisk"
	k="17" />
    <hkern g1="eth"
	g2="comma,period,quotesinglbase,quotedblbase,ellipsis"
	k="7" />
    <hkern g1="f"
	g2="T"
	k="-28" />
    <hkern g1="f"
	g2="V"
	k="-45" />
    <hkern g1="f"
	g2="W"
	k="-45" />
    <hkern g1="f"
	g2="Y,Yacute,Ydieresis"
	k="-30" />
    <hkern g1="f"
	g2="question"
	k="-27" />
    <hkern g1="f"
	g2="quotedbl,quotesingle,registered,quoteleft,quoteright,quotedblleft,quotedblright,trademark"
	k="-44" />
    <hkern g1="f"
	g2="comma,period,quotesinglbase,quotedblbase,ellipsis"
	k="43" />
    <hkern g1="f"
	g2="asterisk"
	k="-43" />
    <hkern g1="f"
	g2="X"
	k="-14" />
    <hkern g1="f"
	g2="Z,Zcaron"
	k="-8" />
    <hkern g1="f"
	g2="parenright,bracketright,braceright"
	k="-48" />
    <hkern g1="f"
	g2="ampersand"
	k="3" />
    <hkern g1="g,j,q,uni0237"
	g2="T"
	k="85" />
    <hkern g1="g,j,q,uni0237"
	g2="V"
	k="42" />
    <hkern g1="g,j,q,uni0237"
	g2="W"
	k="30" />
    <hkern g1="g,j,q,uni0237"
	g2="Y,Yacute,Ydieresis"
	k="90" />
    <hkern g1="g,j,q,uni0237"
	g2="question"
	k="23" />
    <hkern g1="k"
	g2="T"
	k="69" />
    <hkern g1="k"
	g2="V"
	k="23" />
    <hkern g1="k"
	g2="W"
	k="23" />
    <hkern g1="k"
	g2="Y,Yacute,Ydieresis"
	k="66" />
    <hkern g1="k"
	g2="bullet"
	k="27" />
    <hkern g1="k"
	g2="hyphen,periodcentered,endash,emdash"
	k="27" />
    <hkern g1="k"
	g2="c,d,e,g,o,q,cent,ccedilla,eacute,oacute,oe"
	k="3" />
    <hkern g1="r"
	g2="T"
	k="48" />
    <hkern g1="r"
	g2="V"
	k="23" />
    <hkern g1="r"
	g2="W"
	k="6" />
    <hkern g1="r"
	g2="Y,Yacute,Ydieresis"
	k="50" />
    <hkern g1="r"
	g2="comma,period,quotesinglbase,quotedblbase,ellipsis"
	k="83" />
    <hkern g1="r"
	g2="X"
	k="9" />
    <hkern g1="s,scaron"
	g2="T"
	k="88" />
    <hkern g1="s,scaron"
	g2="V"
	k="43" />
    <hkern g1="s,scaron"
	g2="W"
	k="39" />
    <hkern g1="s,scaron"
	g2="Y,Yacute,Ydieresis"
	k="93" />
    <hkern g1="s,scaron"
	g2="question"
	k="43" />
    <hkern g1="s,scaron"
	g2="quotedbl,quotesingle,registered,quoteleft,quoteright,quotedblleft,quotedblright,trademark"
	k="20" />
    <hkern g1="s,scaron"
	g2="X"
	k="3" />
    <hkern g1="t"
	g2="T"
	k="52" />
    <hkern g1="t"
	g2="V"
	k="26" />
    <hkern g1="t"
	g2="W"
	k="13" />
    <hkern g1="t"
	g2="Y,Yacute,Ydieresis"
	k="33" />
    <hkern g1="u,z,mu"
	g2="T"
	k="85" />
    <hkern g1="u,z,mu"
	g2="V"
	k="42" />
    <hkern g1="u,z,mu"
	g2="W"
	k="30" />
    <hkern g1="u,z,mu"
	g2="Y,Yacute,Ydieresis"
	k="90" />
    <hkern g1="u,z,mu"
	g2="question"
	k="23" />
    <hkern g1="v"
	g2="T"
	k="56" />
    <hkern g1="v"
	g2="V"
	k="13" />
    <hkern g1="v"
	g2="W"
	k="3" />
    <hkern g1="v"
	g2="Y,Yacute,Ydieresis"
	k="60" />
    <hkern g1="v"
	g2="comma,period,quotesinglbase,quotedblbase,ellipsis"
	k="67" />
    <hkern g1="v"
	g2="X"
	k="37" />
    <hkern g1="v"
	g2="A,Agrave,Aacute,Acircumflex,Atilde,Adieresis,Aring,AE"
	k="20" />
    <hkern g1="w"
	g2="T"
	k="56" />
    <hkern g1="w"
	g2="V"
	k="6" />
    <hkern g1="w"
	g2="Y,Yacute,Ydieresis"
	k="60" />
    <hkern g1="w"
	g2="comma,period,quotesinglbase,quotedblbase,ellipsis"
	k="44" />
    <hkern g1="w"
	g2="X"
	k="44" />
    <hkern g1="w"
	g2="A,Agrave,Aacute,Acircumflex,Atilde,Adieresis,Aring,AE"
	k="17" />
    <hkern g1="x"
	g2="T"
	k="66" />
    <hkern g1="x"
	g2="V"
	k="23" />
    <hkern g1="x"
	g2="W"
	k="23" />
    <hkern g1="x"
	g2="Y,Yacute,Ydieresis"
	k="73" />
    <hkern g1="x"
	g2="c,d,e,g,o,q,cent,ccedilla,eacute,oacute,oe"
	k="37" />
    <hkern g1="y,yacute,ydieresis"
	g2="T"
	k="56" />
    <hkern g1="y,yacute,ydieresis"
	g2="V"
	k="6" />
    <hkern g1="y,yacute,ydieresis"
	g2="W"
	k="3" />
    <hkern g1="y,yacute,ydieresis"
	g2="Y,Yacute,Ydieresis"
	k="60" />
    <hkern g1="y,yacute,ydieresis"
	g2="question"
	k="3" />
    <hkern g1="y,yacute,ydieresis"
	g2="comma,period,quotesinglbase,quotedblbase,ellipsis"
	k="57" />
    <hkern g1="y,yacute,ydieresis"
	g2="X"
	k="37" />
    <hkern g1="y,yacute,ydieresis"
	g2="A,Agrave,Aacute,Acircumflex,Atilde,Adieresis,Aring,AE"
	k="20" />
    <hkern g1="aacute"
	g2="T"
	k="48" />
    <hkern g1="aacute"
	g2="V"
	k="24" />
    <hkern g1="aacute"
	g2="W"
	k="16" />
    <hkern g1="aacute"
	g2="Y,Yacute,Ydieresis"
	k="44" />
    <hkern g1="aacute"
	g2="question"
	k="12" />
    <hkern g1="acircumflex"
	g2="T"
	k="48" />
    <hkern g1="acircumflex"
	g2="V"
	k="24" />
    <hkern g1="acircumflex"
	g2="W"
	k="16" />
    <hkern g1="acircumflex"
	g2="Y,Yacute,Ydieresis"
	k="44" />
    <hkern g1="acircumflex"
	g2="question"
	k="12" />
    <hkern g1="adieresis"
	g2="T"
	k="48" />
    <hkern g1="adieresis"
	g2="V"
	k="24" />
    <hkern g1="adieresis"
	g2="W"
	k="16" />
    <hkern g1="adieresis"
	g2="Y,Yacute,Ydieresis"
	k="44" />
    <hkern g1="adieresis"
	g2="question"
	k="12" />
    <hkern g1="aring"
	g2="T"
	k="48" />
    <hkern g1="aring"
	g2="V"
	k="24" />
    <hkern g1="aring"
	g2="W"
	k="16" />
    <hkern g1="aring"
	g2="Y,Yacute,Ydieresis"
	k="44" />
    <hkern g1="aring"
	g2="question"
	k="12" />
    <hkern g1="atilde"
	g2="T"
	k="48" />
    <hkern g1="atilde"
	g2="V"
	k="24" />
    <hkern g1="atilde"
	g2="W"
	k="16" />
    <hkern g1="atilde"
	g2="Y,Yacute,Ydieresis"
	k="44" />
    <hkern g1="atilde"
	g2="question"
	k="12" />
    <hkern g1="ntilde"
	g2="T"
	k="48" />
    <hkern g1="ntilde"
	g2="V"
	k="24" />
    <hkern g1="ntilde"
	g2="W"
	k="16" />
    <hkern g1="ntilde"
	g2="Y,Yacute,Ydieresis"
	k="44" />
    <hkern g1="ntilde"
	g2="question"
	k="12" />
    <hkern g1="a,h,m,n,agrave"
	g2="T"
	k="108" />
    <hkern g1="a,h,m,n,agrave"
	g2="V"
	k="66" />
    <hkern g1="a,h,m,n,agrave"
	g2="W"
	k="43" />
    <hkern g1="a,h,m,n,agrave"
	g2="Y,Yacute,Ydieresis"
	k="110" />
    <hkern g1="a,h,m,n,agrave"
	g2="question"
	k="36" />
    <hkern g1="a,h,m,n,agrave"
	g2="quotedbl,quotesingle,registered,quoteleft,quoteright,quotedblleft,quotedblright,trademark"
	k="6" />
    <hkern g1="ampersand"
	g2="T"
	k="74" />
    <hkern g1="ampersand"
	g2="V"
	k="50" />
    <hkern g1="ampersand"
	g2="W"
	k="48" />
    <hkern g1="ampersand"
	g2="Y,Yacute,Ydieresis"
	k="91" />
    <hkern g1="parenleft,bracketleft,braceleft"
	g2="j,uni0237"
	k="-60" />
    <hkern g1="colon,semicolon"
	g2="T"
	k="50" />
    <hkern g1="colon,semicolon"
	g2="Y,Yacute,Ydieresis"
	k="59" />
    <hkern g1="plus,divide,minus"
	g2="A,Agrave,Aacute,Acircumflex,Atilde,Adieresis,Aring,AE"
	k="47" />
    <hkern g1="plus,divide,minus"
	g2="J"
	k="67" />
    <hkern g1="plus,divide,minus"
	g2="T"
	k="50" />
    <hkern g1="plus,divide,minus"
	g2="V"
	k="30" />
    <hkern g1="plus,divide,minus"
	g2="W"
	k="3" />
    <hkern g1="plus,divide,minus"
	g2="X"
	k="77" />
    <hkern g1="plus,divide,minus"
	g2="Y,Yacute,Ydieresis"
	k="97" />
    <hkern g1="plus,divide,minus"
	g2="Z,Zcaron"
	k="64" />
    <hkern g1="hyphen,periodcentered,endash,emdash"
	g2="V"
	k="53" />
    <hkern g1="hyphen,periodcentered,endash,emdash"
	g2="W"
	k="33" />
    <hkern g1="hyphen,periodcentered,endash,emdash"
	g2="X"
	k="43" />
    <hkern g1="hyphen,periodcentered,endash,emdash"
	g2="Y,Yacute,Ydieresis"
	k="109" />
    <hkern g1="comma,period,quotesinglbase,quotedblbase,ellipsis"
	g2="j,uni0237"
	k="-40" />
    <hkern g1="comma,period,quotesinglbase,quotedblbase,ellipsis"
	g2="T"
	k="93" />
    <hkern g1="comma,period,quotesinglbase,quotedblbase,ellipsis"
	g2="V"
	k="87" />
    <hkern g1="comma,period,quotesinglbase,quotedblbase,ellipsis"
	g2="W"
	k="67" />
    <hkern g1="comma,period,quotesinglbase,quotedblbase,ellipsis"
	g2="Y,Yacute,Ydieresis"
	k="90" />
    <hkern g1="comma,period,quotesinglbase,quotedblbase,ellipsis"
	g2="U,Ugrave,Uacute,Ucircumflex,Udieresis"
	k="30" />
    <hkern g1="comma,period,quotesinglbase,quotedblbase,ellipsis"
	g2="c,d,e,g,o,q,cent,ccedilla,eacute,oacute,oe"
	k="7" />
    <hkern g1="comma,period,quotesinglbase,quotedblbase,ellipsis"
	g2="f"
	k="23" />
    <hkern g1="comma,period,quotesinglbase,quotedblbase,ellipsis"
	g2="one"
	k="78" />
    <hkern g1="comma,period,quotesinglbase,quotedblbase,ellipsis"
	g2="quotedbl,quotesingle,registered,quoteleft,quoteright,quotedblleft,quotedblright,trademark"
	k="76" />
    <hkern g1="comma,period,quotesinglbase,quotedblbase,ellipsis"
	g2="seven"
	k="66" />
    <hkern g1="comma,period,quotesinglbase,quotedblbase,ellipsis"
	g2="t"
	k="23" />
    <hkern g1="comma,period,quotesinglbase,quotedblbase,ellipsis"
	g2="v"
	k="67" />
    <hkern g1="comma,period,quotesinglbase,quotedblbase,ellipsis"
	g2="w"
	k="44" />
    <hkern g1="comma,period,quotesinglbase,quotedblbase,ellipsis"
	g2="y,yacute,ydieresis"
	k="57" />
    <hkern g1="questiondown"
	g2="j,uni0237"
	k="-106" />
    <hkern g1="quotedbl,quotesingle,quoteleft,quoteright,quotedblleft,quotedblright"
	g2="A,Agrave,Aacute,Acircumflex,Atilde,Adieresis,Aring,AE"
	k="104" />
    <hkern g1="quotedbl,quotesingle,quoteleft,quoteright,quotedblleft,quotedblright"
	g2="J"
	k="92" />
    <hkern g1="quotedbl,quotesingle,quoteleft,quoteright,quotedblleft,quotedblright"
	g2="comma,period,quotesinglbase,quotedblbase,ellipsis"
	k="76" />
    <hkern g1="quotedbl,quotesingle,quoteleft,quoteright,quotedblleft,quotedblright"
	g2="s,scaron"
	k="30" />
    <hkern g1="quotedbl,quotesingle,quoteleft,quoteright,quotedblleft,quotedblright"
	g2="C,G,O,Q,Ccedilla,Ograve,Oacute,Ocircumflex,Otilde,Odieresis,Oslash,OE"
	k="3" />
    <hkern g1="asterisk"
	g2="A,Agrave,Aacute,Acircumflex,Atilde,Adieresis,Aring,AE"
	k="101" />
    <hkern g1="asterisk"
	g2="J"
	k="116" />
    <hkern g1="seven"
	g2="comma,period,quotesinglbase,quotedblbase,ellipsis"
	k="97" />
    <hkern g1="zero,nine"
	g2="comma,period,quotesinglbase,quotedblbase,ellipsis"
	k="31" />
    <hkern g1="fraction"
	g2="glyph227"
	k="50" />
    <hkern g1="fraction"
	g2="glyph224"
	k="-22" />
  </font>
</defs></svg>
