<?xml version="1.0" encoding="utf-8"?>
<!-- Generator: Adobe Illustrator 19.0.0, SVG Export Plug-In . SVG Version: 6.00 Build 0)  -->
<svg version="1.1" id="Layer_1" xmlns="http://www.w3.org/2000/svg" xmlns:xlink="http://www.w3.org/1999/xlink" x="0px" y="0px"
	 viewBox="0 0 17 14.9" style="enable-background:new 0 0 17 14.9;" xml:space="preserve">
<style type="text/css">
	.st0{fill:#646060;}
	.st1{display:none;fill:#646060;}
	.st2{display:none;}
	.st3{display:inline;fill:#646060;}
</style>
<text id="XMLID_94_" transform="matrix(1 0 0 1 140.1714 705.7429)" class="st0" style="font-family:'MuseoSansRounded-300'; font-size:17px;">Electronics </text>
<path id="XMLID_1_" class="st0" d="M0.7-2106.7l2.2-3.7c0.1-0.2,0.3-0.3,0.5-0.3v0h9.8c0.2,0,0.4,0.1,0.5,0.3l2.2,3.7
	c0.1,0.2,0.1,0.5-0.1,0.7h0l-7.1,7.1c-0.2,0.2-0.6,0.2-0.8,0l0,0l-7.1-7.1C0.5-2106.1,0.5-2106.5,0.7-2106.7L0.7-2106.7z
	 M2.1-2106.7h3l-1.5-2.5L2.1-2106.7L2.1-2106.7z M13.1-2109.2l-1.5,2.5h3L13.1-2109.2L13.1-2109.2z M14.2-2106h-3.1l-1.8,4.9
	L14.2-2106L14.2-2106z M7.2-2101.1l-1.8-4.9H2.4L7.2-2101.1L7.2-2101.1z M12.4-2109.5H9.1l1.8,2.5L12.4-2109.5L12.4-2109.5z
	 M7.4-2109.5H4.2l1.5,2.5L7.4-2109.5L7.4-2109.5z M6.4-2106.7h3.9l-1.9-2.8L6.4-2106.7L6.4-2106.7z M10.4-2106H6.2l2.1,5.7
	L10.4-2106L10.4-2106z"/>
<path id="XMLID_3_" class="st0" d="M0.7-2106.7l2.2-3.7c0.1-0.2,0.3-0.3,0.5-0.3v0h9.8c0.2,0,0.4,0.1,0.5,0.3l2.2,3.7
	c0.1,0.2,0.1,0.5-0.1,0.7h0l-7.1,7.1c-0.2,0.2-0.6,0.2-0.8,0l0,0l-7.1-7.1C0.5-2106.1,0.5-2106.5,0.7-2106.7L0.7-2106.7z
	 M2.1-2106.7h3l-1.5-2.5L2.1-2106.7L2.1-2106.7z M13.1-2109.2l-1.5,2.5h3L13.1-2109.2L13.1-2109.2z M14.2-2106h-3.1l-1.8,4.9
	L14.2-2106L14.2-2106z M7.2-2101.1l-1.8-4.9H2.4L7.2-2101.1L7.2-2101.1z M12.4-2109.5H9.1l1.8,2.5L12.4-2109.5L12.4-2109.5z
	 M7.4-2109.5H4.2l1.5,2.5L7.4-2109.5L7.4-2109.5z M6.4-2106.7h3.9l-1.9-2.8L6.4-2106.7L6.4-2106.7z M10.4-2106H6.2l2.1,5.7
	L10.4-2106L10.4-2106z"/>
<path id="XMLID_16_" class="st0" d="M0.7-2106.7l2.2-3.7c0.1-0.2,0.3-0.3,0.5-0.3v0h9.8c0.2,0,0.4,0.1,0.5,0.3l2.2,3.7
	c0.1,0.2,0.1,0.5-0.1,0.7h0l-7.1,7.1c-0.2,0.2-0.6,0.2-0.8,0l0,0l-7.1-7.1C0.5-2106.1,0.5-2106.5,0.7-2106.7L0.7-2106.7z
	 M2.1-2106.7h3l-1.5-2.5L2.1-2106.7L2.1-2106.7z M13.1-2109.2l-1.5,2.5h3L13.1-2109.2L13.1-2109.2z M14.2-2106h-3.1l-1.8,4.9
	L14.2-2106L14.2-2106z M7.2-2101.1l-1.8-4.9H2.4L7.2-2101.1L7.2-2101.1z M12.4-2109.5H9.1l1.8,2.5L12.4-2109.5L12.4-2109.5z
	 M7.4-2109.5H4.2l1.5,2.5L7.4-2109.5L7.4-2109.5z M6.4-2106.7h3.9l-1.9-2.8L6.4-2106.7L6.4-2106.7z M10.4-2106H6.2l2.1,5.7
	L10.4-2106L10.4-2106z"/>
<path id="XMLID_39_" class="st1" d="M0.7-2106.7l2.2-3.7c0.1-0.2,0.3-0.3,0.5-0.3v0h9.8c0.2,0,0.4,0.1,0.5,0.3l2.2,3.7
	c0.1,0.2,0.1,0.5-0.1,0.7h0l-7.1,7.1c-0.2,0.2-0.6,0.2-0.8,0l0,0l-7.1-7.1C0.5-2106.1,0.5-2106.5,0.7-2106.7L0.7-2106.7z
	 M2.1-2106.7h3l-1.5-2.5L2.1-2106.7L2.1-2106.7z M13.1-2109.2l-1.5,2.5h3L13.1-2109.2L13.1-2109.2z M14.2-2106h-3.1l-1.8,4.9
	L14.2-2106L14.2-2106z M7.2-2101.1l-1.8-4.9H2.4L7.2-2101.1L7.2-2101.1z M12.4-2109.5H9.1l1.8,2.5L12.4-2109.5L12.4-2109.5z
	 M7.4-2109.5H4.2l1.5,2.5L7.4-2109.5L7.4-2109.5z M6.4-2106.7h3.9l-1.9-2.8L6.4-2106.7L6.4-2106.7z M10.4-2106H6.2l2.1,5.7
	L10.4-2106L10.4-2106z"/>
<path id="XMLID_52_" class="st1" d="M0.8,5.4L3,1.7c0.1-0.2,0.3-0.3,0.5-0.3v0h9.8c0.2,0,0.4,0.1,0.5,0.3L16,5.4
	c0.1,0.2,0.1,0.5-0.1,0.7h0l-7.1,7.1c-0.2,0.2-0.6,0.2-0.8,0l0,0L0.8,6.1C0.6,5.9,0.6,5.6,0.8,5.4L0.8,5.4z M2.2,5.4h3L3.6,2.9
	L2.2,5.4L2.2,5.4z M13.1,2.9l-1.5,2.5h3L13.1,2.9L13.1,2.9z M14.3,6.1h-3.1l-1.8,4.9L14.3,6.1L14.3,6.1z M7.3,10.9L5.5,6.1H2.4
	L7.3,10.9L7.3,10.9z M12.5,2.6H9.2L11,5.1L12.5,2.6L12.5,2.6z M7.5,2.6H4.3l1.5,2.5L7.5,2.6L7.5,2.6z M6.4,5.4h3.9L8.4,2.6L6.4,5.4
	L6.4,5.4z M10.5,6.1H6.3l2.1,5.7L10.5,6.1L10.5,6.1z"/>
<path id="XMLID_62_" class="st1" d="M15,9.7h0.6V6.9h-0.6h0h-1.9h0H1.7c-0.1,0-0.1,0-0.2-0.1c-0.1,0-0.1,0.1-0.2,0.1v2.9h0.5
	c0.4,0,0.7,0.3,0.7,0.7l0,0.1h0c0,0.4,0.2,0.9,0.5,1.2l0,0c0.3,0.3,0.7,0.5,1.1,0.5c0.5,0,0.9-0.2,1.2-0.5c0.3-0.3,0.5-0.7,0.5-1.2
	l0-0.1l0,0C5.7,10,6,9.7,6.4,9.7h0v0h4.1c0.4,0,0.7,0.3,0.7,0.7l0,0.1h0c0,0.4,0.2,0.9,0.5,1.2l0,0c0.3,0.3,0.7,0.5,1.1,0.5
	c0.5,0,0.9-0.2,1.2-0.5c0.3-0.3,0.5-0.7,0.5-1.2l0-0.1l0,0C14.3,10,14.6,9.7,15,9.7L15,9.7L15,9.7L15,9.7z M12.7,9.8
	c0.4,0,0.7,0.3,0.7,0.7c0,0.4-0.3,0.7-0.7,0.7c-0.4,0-0.7-0.3-0.7-0.7C12.1,10.1,12.4,9.8,12.7,9.8L12.7,9.8z M4.1,9.8
	c0.4,0,0.7,0.3,0.7,0.7c0,0.4-0.3,0.7-0.7,0.7c-0.4,0-0.7-0.3-0.7-0.7C3.4,10.1,3.7,9.8,4.1,9.8L4.1,9.8z M12.4,6.1l-1.6-3.4H3.6
	L2,6.1H12.4L12.4,6.1z M16.3,11h-0.7c-0.1,0.6-0.4,1.1-0.8,1.5l0,0l0,0c-0.5,0.5-1.3,0.9-2.1,0.9c-0.8,0-1.5-0.3-2-0.8l0,0
	c-0.4-0.4-0.7-0.9-0.8-1.5H7c-0.1,0.6-0.4,1.1-0.8,1.5l0,0l0,0c-0.5,0.5-1.3,0.9-2.1,0.9c-0.8,0-1.5-0.3-2-0.8l0,0
	c-0.4-0.4-0.7-0.9-0.8-1.5H0.7h0C0.3,11,0,10.7,0,10.4V6.2v0c0-0.4,0.3-0.7,0.7-0.7h0.2l1.8-3.7c0.1-0.2,0.3-0.4,0.6-0.4h8v0
	c0.2,0,0.5,0.1,0.6,0.4l1.8,3.8h2.7h0c0.4,0,0.7,0.3,0.7,0.7v4.1v0C17,10.7,16.7,11,16.3,11z"/>
<path id="XMLID_68_" class="st1" d="M15,6.8L15,6.8c0,1.9-0.7,3.6-1.9,4.9c0.3,0.1,0.6,0.2,0.8,0.4c0.3,0.3,0.5,0.7,0.5,1.1
	c0,0.4-0.2,0.8-0.5,1.1c-0.3,0.3-0.7,0.5-1.1,0.5c-0.4,0-0.8-0.2-1.1-0.5c-0.3-0.3-0.5-0.7-0.5-1.1l0-0.1C10.1,13.7,9,14,7.8,14
	c-1.2,0-2.3-0.3-3.3-0.8l0,0.1c0,0.9-0.7,1.6-1.6,1.6c-0.9,0-1.6-0.7-1.6-1.6c0-0.8,0.5-1.4,1.3-1.6c-1.2-1.3-1.9-3-1.9-4.9v0v0
	c0-1.5,0.5-2.9,1.3-4.1l0,0C2.7,1.5,4,0.5,5.4,0C5.7-0.1,6,0.1,6.1,0.4l2.1,5.9h4.4V5.8c0-0.5,0.1-1,0.4-1.3
	c0.2-0.3,0.5-0.6,0.8-0.8c0-0.2,0-0.3,0.1-0.5C14,3,14.1,2.9,14.2,2.8c0.1-0.1,0.3-0.2,0.4-0.3c0.1-0.1,0.3-0.1,0.5-0.1
	c0.2,0,0.3,0,0.5,0.1h0l0,0c0.2,0.1,0.3,0.2,0.4,0.3c0.1,0.1,0.2,0.3,0.3,0.4c0.1,0.1,0.1,0.3,0.1,0.5c0,0.2,0,0.3-0.1,0.5l0,0h0
	c-0.1,0.2-0.2,0.3-0.3,0.4c-0.2,0.2-0.5,0.4-0.9,0.4c-0.2,0-0.3,0-0.5-0.1c-0.2-0.1-0.3-0.2-0.4-0.3c-0.1-0.1-0.1-0.1-0.2-0.2
	c-0.2,0.1-0.3,0.3-0.5,0.5c-0.2,0.3-0.3,0.6-0.3,1v0.4h1.1C14.7,6.2,15,6.5,15,6.8L15,6.8z M13.3,7.4v1c0,0.2-0.2,0.3-0.3,0.3
	c-0.2,0-0.3-0.2-0.3-0.3v-1H7.8h0h-6c0.1,1.4,0.8,2.7,1.7,3.7l0,0c1.1,1.1,2.6,1.8,4.3,1.8c1.7,0,3.2-0.7,4.3-1.8l0,0
	c1-1,1.6-2.3,1.7-3.7H13.3L13.3,7.4z M15.3,3.2c-0.1,0-0.1,0-0.2,0c-0.1,0-0.1,0-0.2,0c-0.1,0-0.1,0.1-0.2,0.1
	c-0.1,0.1-0.1,0.1-0.1,0.2c0,0.1,0,0.1,0,0.2c0,0.1,0.1,0.3,0.2,0.4c0.1,0.1,0.1,0.1,0.2,0.1c0.1,0,0.1,0,0.2,0
	c0.2,0,0.3-0.1,0.4-0.2c0.1-0.1,0.1-0.1,0.1-0.2l0,0c0-0.1,0-0.1,0-0.2c0-0.1,0-0.1,0-0.2c0-0.1-0.1-0.1-0.1-0.2
	C15.4,3.2,15.4,3.2,15.3,3.2L15.3,3.2L15.3,3.2z M13.3,12.7c-0.2-0.2-0.4-0.3-0.6-0.3c-0.2,0-0.5,0.1-0.6,0.3l0,0
	c-0.2,0.2-0.3,0.4-0.3,0.6c0,0.2,0.1,0.5,0.3,0.6c0.2,0.2,0.4,0.3,0.6,0.3c0.2,0,0.5-0.1,0.6-0.3c0.2-0.2,0.3-0.4,0.3-0.6
	C13.6,13.1,13.5,12.8,13.3,12.7L13.3,12.7z M3.5,12.7c-0.2-0.2-0.4-0.3-0.6-0.3c-0.5,0-0.9,0.4-0.9,0.9c0,0.5,0.4,0.9,0.9,0.9
	s0.9-0.4,0.9-0.9C3.8,13.1,3.7,12.8,3.5,12.7L3.5,12.7z M1.7,6.2h5.2L5.2,1.3c-1,0.4-1.8,1.1-2.4,2l0,0C2.2,4.2,1.9,5.2,1.7,6.2z"/>
<path id="XMLID_75_" class="st1" d="M6.6,6.6h3.8c0.1-0.3,0.2-0.5,0.3-0.8l0,0c0.5-0.8,0.6-1.5,0.6-2.1h0c0.1-0.9,0.2-1.5,0.9-2
	c-0.4-0.1-0.9-0.2-1.1-0.2c-0.4,1.2-0.7,1.3-1.3,1.6c-0.2,0.1-0.6,0.3-1,0.6c-0.2,0.1-0.5,0.1-0.7,0c-0.4-0.3-0.8-0.5-1-0.6
	C6.6,2.8,6.3,2.6,5.9,1.5c-0.3,0-0.7,0.1-1.1,0.2c0.7,0.5,0.8,1.2,0.9,2l0,0c0.1,0.6,0.2,1.3,0.6,2.1l0,0C6.4,6.1,6.5,6.4,6.6,6.6
	L6.6,6.6z M10.4,7.3H6.7C6.6,8,6.3,8.7,6,9.5c-0.3,0.7-0.6,1.5-0.6,2.2v1.8c0.3,0,0.6,0,0.9,0c1.9,0.1,3.9,0.2,5.5-1.2v-0.6
	c0-0.7-0.3-1.5-0.6-2.2C10.7,8.7,10.4,8,10.4,7.3L10.4,7.3z M5,9c0.4-1,0.8-1.9,0.4-2.6l0,0h0c-0.6-1-0.7-1.8-0.8-2.5l0-0.1
	C4.5,3.2,4.4,2.7,3.8,2.5C3.1,2.2,3.1,1.2,3.8,0.9c0,0,0,0,0.1,0c1-0.4,2-0.5,2.3-0.5l0.1,0h0l0,0c0.2,0,0.4,0.1,0.5,0.4
	c0.4,1.1,0.5,1.2,0.9,1.4c0.2,0.1,0.5,0.2,0.9,0.5c0.4-0.2,0.6-0.4,0.9-0.5c0.4-0.2,0.5-0.3,0.9-1.4c0.1-0.2,0.3-0.4,0.5-0.4
	c0,0,1.2,0.1,2.4,0.5l0,0h0c0.7,0.3,0.7,1.3,0,1.6c-0.6,0.3-0.6,0.8-0.7,1.4h0l0,0c-0.1,0.7-0.2,1.6-0.8,2.5l0,0
	C11.2,7.2,11.6,8.1,12,9c0.4,0.8,0.7,1.7,0.7,2.7v0.8h0c0,0.1-0.1,0.3-0.2,0.4c-1.9,1.9-4.2,1.8-6.4,1.7c-0.4,0-0.9,0-1.4,0h0
	c-0.3,0-0.5-0.2-0.5-0.5v-2.3C4.3,10.7,4.6,9.9,5,9L5,9z"/>
<g id="XMLID_79_" class="st2">
	<path id="XMLID_80_" class="st3" d="M11,9.8c0.3,0,0.5-0.2,0.5-0.5c0-0.3-0.2-0.5-0.5-0.5c-0.3,0-0.5,0.2-0.5,0.5
		C10.5,9.6,10.7,9.8,11,9.8z M10.3,12.2L10.3,12.2c0.2,0.2,0.4,0.3,0.7,0.3c0.3,0,0.5-0.1,0.7-0.3l0,0c0.2-0.2,0.3-0.4,0.3-0.7
		s-0.1-0.5-0.3-0.7c-0.2-0.2-0.4-0.3-0.7-0.3c-0.3,0-0.5,0.1-0.7,0.3h0c-0.2,0.2-0.3,0.4-0.3,0.7C10,11.8,10.1,12.1,10.3,12.2z
		 M10.7,11.3L10.7,11.3L10.7,11.3c0.1-0.1,0.1-0.1,0.2-0.1c0.1,0,0.2,0,0.2,0.1h0l0,0c0.1,0.1,0.1,0.1,0.1,0.2c0,0.1,0,0.2-0.1,0.2
		l0,0c-0.1,0.1-0.1,0.1-0.2,0.1c-0.1,0-0.2,0-0.2-0.1l0,0c-0.1-0.1-0.1-0.1-0.1-0.2C10.6,11.5,10.7,11.4,10.7,11.3z M11,8
		c0.3,0,0.5-0.2,0.5-0.5S11.3,6.9,11,6.9c-0.3,0-0.5,0.2-0.5,0.5S10.7,8,11,8z M2,12.4L2,12.4L2,12.4c0.2,0.2,0.5,0.3,0.8,0.3h5.9
		c0.3,0,0.6-0.1,0.8-0.3c0.2-0.2,0.3-0.5,0.3-0.8V6.5c0-0.3-0.1-0.6-0.3-0.8v0l0,0l0,0C9.3,5.5,9,5.4,8.7,5.4H2.8
		C2.5,5.4,2.2,5.5,2,5.7l0,0v0C1.8,5.9,1.7,6.2,1.7,6.5v5.2C1.7,12,1.8,12.2,2,12.4L2,12.4z M2.3,6.5c0-0.1,0.1-0.3,0.1-0.3l0,0
		C2.5,6.1,2.7,6,2.8,6h5.9C8.8,6,8.9,6.1,9,6.2l0,0c0.1,0.1,0.1,0.2,0.1,0.3v5.2c0,0.1-0.1,0.2-0.1,0.3c-0.1,0.1-0.2,0.1-0.3,0.1
		H2.8c-0.1,0-0.3-0.1-0.3-0.1l0,0c-0.1-0.1-0.1-0.2-0.1-0.3V6.5z M13,3.9H4.6l2.1-2.1c0.1-0.1,0.1-0.3,0-0.4c-0.1-0.1-0.3-0.1-0.4,0
		L4,3.6L1.8,1.4c-0.1-0.1-0.3-0.1-0.4,0c-0.1,0.1-0.1,0.3,0,0.4l2.1,2.1H0.6c-0.3,0-0.5,0.2-0.5,0.5v9.3c0,0.3,0.2,0.5,0.5,0.5H13
		c0.3,0,0.5-0.2,0.5-0.5V4.5C13.5,4.2,13.3,3.9,13,3.9z M12.5,13.2H1.1V5h11.3V13.2z M15.6,1.9c-0.8-0.8-1.9-1.3-3.2-1.3
		c-0.2,0-0.3,0.1-0.3,0.3c0,0.2,0.1,0.3,0.3,0.3c1.1,0,2,0.4,2.7,1.1C15.9,3,16.3,4,16.3,5.1c0,0.2,0.1,0.3,0.3,0.3
		c0.2,0,0.3-0.1,0.3-0.3C16.9,3.8,16.4,2.7,15.6,1.9z M14.3,3.2c-0.5-0.5-1.1-0.8-1.9-0.8c-0.2,0-0.3,0.1-0.3,0.3
		c0,0.2,0.1,0.3,0.3,0.3c0.6,0,1.1,0.2,1.4,0.6l0,0c0.4,0.4,0.6,0.9,0.6,1.4c0,0.2,0.1,0.3,0.3,0.3c0.2,0,0.3-0.1,0.3-0.3
		C15.1,4.3,14.8,3.7,14.3,3.2L14.3,3.2z"/>
</g>
<path id="XMLID_95_" class="st1" d="M13.1,13.9l-5-3.3c-0.2-0.1-0.3-0.3-0.3-0.5l0,0v0H7.2l1.1,3.3C8.5,13.6,8.3,14,8,14.1l-1.1,0.4
	l-1.1,0.4C5.4,15,5.1,14.8,5,14.5L3.4,10C2.8,9.8,2.3,9.5,1.9,9C1.4,8.5,1.1,7.8,1.1,7c0-0.8,0.3-1.6,0.9-2.1l0,0l0,0
	C2.5,4.3,3.3,4,4.1,4h3.7v0c0-0.2,0.1-0.4,0.3-0.5l5-3.3C13.4,0,13.8,0,14,0.3c0.1,0.1,0.1,0.2,0.1,0.3l0,0v4.1
	c0.4,0.1,0.8,0.3,1.1,0.6l0,0c0.4,0.4,0.7,1,0.7,1.7c0,0.7-0.3,1.3-0.7,1.7l0,0v0c-0.3,0.3-0.7,0.5-1.1,0.6v4.1
	c0,0.3-0.3,0.6-0.6,0.6C13.3,14,13.2,14,13.1,13.9L13.1,13.9z M8.3,8.8V5.2H4.1c-0.5,0-1,0.2-1.3,0.5C2.5,6.1,2.3,6.5,2.3,7
	c0,0.5,0.2,0.9,0.5,1.2C3,8.6,3.4,8.8,3.9,8.8l0,0c0.2,0,0.4,0.2,0.5,0.4l1.5,4.3l0.6-0.2L7,13.2L5.8,9.7c0-0.1,0-0.2,0-0.2
	c0-0.3,0.3-0.6,0.6-0.6H8.3L8.3,8.8z M9,4.6v4.8v0v0v0v0.3l3.8,2.6V1.8L9,4.3V4.6L9,4.6L9,4.6L9,4.6z M14.1,5.5v3.1
	c0.2-0.1,0.4-0.2,0.6-0.4l0,0c0.3-0.3,0.5-0.7,0.5-1.2c0-0.5-0.2-0.9-0.5-1.2l0,0C14.5,5.7,14.3,5.5,14.1,5.5z"/>
<path id="XMLID_100_" class="st0" d="M1.9,6.6L1.9,6.6H3c0.2-0.8,1-1.4,1.9-1.4h5.6c0.9,0,1.6,0.6,1.9,1.4h1.1
	c0.2,0,0.3,0.1,0.3,0.3v0v1.6c0,0.2-0.1,0.3-0.3,0.3h0h-1.1c-0.2,0.8-1,1.4-1.9,1.4H8.9c-0.3,0-0.6-0.1-0.8-0.4
	C7.9,9.7,7.7,9.5,7.7,9.3c0,0.2-0.2,0.4-0.3,0.6v0l0,0c-0.2,0.2-0.5,0.4-0.8,0.4H4.9C4,10.3,3.2,9.7,3,8.8H1.9
	c-0.2,0-0.3-0.1-0.3-0.3v0V6.9C1.6,6.7,1.7,6.6,1.9,6.6L1.9,6.6z M7.9,12h0.7c0.5,4.1,6.9,3.7,6.9-0.5V0.6c0-0.3-0.2-0.5-0.5-0.5
	c-0.3,0-0.5,0.2-0.5,0.5v10.9c0,2.8-4.2,3.2-4.7,0.5h0.7c0.3,0,0.5-0.2,0.5-0.5c0-0.3-0.2-0.5-0.5-0.5H9.1H7.9
	c-0.3,0-0.5,0.2-0.5,0.5C7.3,11.8,7.6,12,7.9,12L7.9,12z M12.4,7.2v1h0.7v-1H12.4L12.4,7.2z M2.9,8.2v-1H2.2v1H2.9L2.9,8.2z
	 M10.5,6.2H4.9C4.4,6.2,4,6.6,4,7.1v1.2c0,0.5,0.4,0.8,0.8,0.8h1.7c0,0,0.1,0,0.1,0l0,0c0,0,0,0,0-0.1c0-0.6,0.2-1,0.6-1.2
	c0.2-0.1,0.3-0.1,0.5-0.1S8,7.8,8.2,7.8C8.5,8,8.8,8.5,8.8,9.1c0,0,0,0.1,0,0.1c0,0,0,0,0.1,0h1.7c0.5,0,0.8-0.4,0.8-0.8V7.1
	C11.4,6.6,11,6.2,10.5,6.2z"/>
</svg>
